<?xml version="1.0" standalone="no"?>
<!DOCTYPE svg PUBLIC "-//W3C//DTD SVG 1.1//EN" "http://www.w3.org/Graphics/SVG/1.1/DTD/svg11.dtd" >
<svg>
<metadata>
Created by FontForge 20120731 at Tue May 31 21:44:45 2016
 By ,,,
Copyright (c) BPG InfoTech, 2008. All rights reserved.
</metadata>
<defs>
<font id="BPGNinoMtavruli-Bold" horiz-adv-x="1023" >
  <font-face 
    font-family="BPG Nino Mtavruli"
    font-weight="700"
    font-style="italic"
    font-stretch="normal"
    units-per-em="2048"
    panose-1="2 0 8 6 0 0 0 2 0 4"
    ascent="1638"
    descent="-410"
    x-height="1060"
    cap-height="1542"
    bbox="-42 -446 2279 1691"
    underline-thickness="49"
    underline-position="-52"
    slope="-25"
    unicode-range="U+0020-2122"
  />
<missing-glyph horiz-adv-x="1735" 
d="M430 229h961v1078h-961v-1078zM301 91v1354h1216v-1354h-1216z" />
    <glyph glyph-name=".notdef" horiz-adv-x="1735" 
d="M430 229h961v1078h-961v-1078zM301 91v1354h1216v-1354h-1216z" />
    <glyph glyph-name=".null" horiz-adv-x="0" 
 />
    <glyph glyph-name="nonmarkingreturn" horiz-adv-x="643" 
 />
    <glyph glyph-name="space" unicode=" " horiz-adv-x="400" 
 />
    <glyph glyph-name="space" unicode="&#xa0;" horiz-adv-x="400" 
 />
    <glyph glyph-name="exclam" unicode="!" horiz-adv-x="597" 
d="M199 114v225h232v-225h-232zM250 470l-57 765v411h246v-411l-55 -765h-134z" />
    <glyph glyph-name="quotedbl" unicode="&#x22;" horiz-adv-x="734" 
d="M503 1201l-49 249v220h207v-222l-49 -247h-109zM133 1201l-47 247v222h207v-218l-42 -251h-118z" />
    <glyph glyph-name="numbersign" unicode="#" horiz-adv-x="1948" 
d="M1626 931q-22 0 -40 -9t-31 -23.5t-20.5 -33.5t-7.5 -38q0 -47 27.5 -78t71.5 -31q54 0 80.5 30t26.5 77q0 21 -7.5 40t-21.5 34t-33.5 23.5t-44.5 8.5zM1887 359v-178h-514v178h514zM1626 1111q67 0 119.5 -24.5t88 -65t54 -92.5t18.5 -106q0 -60 -18.5 -113t-54 -92.5
t-88 -62t-119.5 -22.5q-63 0 -112.5 23.5t-84.5 63t-53.5 92.5t-18.5 113q0 54 17.5 105.5t52 91.5t84.5 64.5t115 24.5zM1318 1478q-17 0 -30.5 -8.5t-24 -22.5t-16 -31.5t-5.5 -35.5v-1264h-167l-528 1062v-785q0 -52 -18.5 -102t-52 -89t-79.5 -62.5t-101 -23.5
q-53 0 -98 25.5t-79.5 68.5t-57 99t-28.5 116h170q3 -27 12 -49.5t21.5 -38t26 -24.5t25.5 -9q36 0 59.5 22t23.5 67v1021h-201v180h370l525 -1052v838q0 56 21 106t56.5 88t81 60t94.5 22q50 0 97 -23t85 -63.5t63 -96t31 -120.5h-185q-2 21 -10.5 43.5t-21 40.5t-28 29.5
t-31.5 11.5z" />
    <glyph glyph-name="dollar" unicode="$" horiz-adv-x="1039" 
d="M698 593q69 32 100.5 69t31.5 69q0 18 -15 44t-34 51q-12 12 -34.5 29t-51.5 36t-62 39l-66 40q-52 29 -101 60t-88 59q-75 -43 -105.5 -78t-30.5 -73q0 -28 10 -51.5t36 -48t72.5 -54.5t119.5 -70l-1 1q14 -8 27.5 -15.5t26.5 -15.5q16 -9 30 -17l28 -16
q23 -13 42.5 -23.5t38.5 -21.5q6 -5 19 -11zM314 339q26 -110 85.5 -157.5t155.5 -47.5q43 0 79.5 11t63 29.5t41.5 43t15 52.5q0 16 -8.5 34.5t-22.5 32.5q-29 29 -111 84t-213 127q-69 38 -118.5 68t-81.5 59q-26 24 -50 51.5t-42.5 58.5t-29.5 65.5t-11 73.5
q0 37 10 71.5t33.5 65.5t62.5 59t97 53q-61 59 -84 108.5t-23 96.5q0 58 25 111t71.5 93t112.5 64t147 24q173 0 273.5 -86t138.5 -243l-193 -23q-13 56 -32 92.5t-45 58.5t-58 30.5t-70 8.5t-72 -9t-60 -25t-41.5 -37t-15.5 -46q0 -19 6.5 -38t22.5 -35q12 -12 39 -31.5
t66 -44t87.5 -53t104.5 -57.5q28 -15 56.5 -32.5t55.5 -34t50 -32t40 -26.5q66 -46 101.5 -109t35.5 -134q0 -24 -6 -49t-15.5 -49t-23 -45t-28.5 -37q-17 -18 -48.5 -38t-79.5 -41q71 -57 102.5 -113.5t31.5 -121.5q0 -58 -27 -112.5t-77 -96.5t-121.5 -67.5t-160.5 -25.5
q-87 0 -158.5 23.5t-125.5 68t-91 108.5t-56 145z" />
    <glyph glyph-name="percent" unicode="%" horiz-adv-x="1693" 
d="M432 1506q-37 0 -69 -11.5t-55.5 -40.5t-37 -80.5t-13.5 -130.5q0 -66 13 -113t36.5 -76t55.5 -42.5t70 -13.5t69.5 14.5t54.5 46t36 82t13 121.5q0 68 -13.5 114.5t-37 75.5t-55 41.5t-67.5 12.5zM1286 722q-39 0 -72 -13t-56 -44t-36 -81t-13 -125q0 -69 14.5 -116.5
t38.5 -77t55.5 -42.5t66.5 -13q37 0 69.5 14.5t56.5 46.5t37.5 82t13.5 122q0 67 -14 114t-37.5 76.5t-55.5 43t-68 13.5zM317 60l910 1602h174l-906 -1602h-178zM930 477q0 81 22 153t66 127t109.5 87t152.5 32q76 0 142 -27.5t115 -80t77.5 -129t28.5 -174.5
q0 -99 -29 -174.5t-78 -127t-115 -77.5t-139 -26q-78 0 -142.5 24.5t-111 75.5t-72.5 129.5t-26 187.5zM74 1264q0 82 22.5 154.5t66.5 126.5t108.5 85.5t149.5 31.5q79 0 146 -26t115.5 -78t75.5 -128.5t27 -176.5t-28.5 -176.5t-77.5 -128t-113.5 -77.5t-137.5 -26
q-77 0 -142 25t-112 77t-73.5 131t-26.5 186z" />
    <glyph glyph-name="ampersand" unicode="&#x26;" horiz-adv-x="1451" 
d="M898 1335q0 35 -16 67.5t-43.5 57t-64 39.5t-76.5 15q-37 0 -74 -13t-67 -36.5t-48.5 -55.5t-18.5 -70q0 -14 6.5 -34t25.5 -50.5t53 -74t89 -103.5q69 40 114.5 75t72 66.5t37 60.5t10.5 56zM586 868q-1 0 -1.5 -1t-1.5 -1q-68 -39 -122.5 -72.5t-92.5 -68.5t-58.5 -75
t-18.5 -91q1 -45 24 -95.5t65.5 -94t102 -72t133.5 -28.5q41 0 87 10.5t93 32t92.5 54t86.5 77.5zM1106 292l-7.5 7.5t-6.5 7.5q-112 -106 -229.5 -157t-246.5 -51q-116 0 -213 36t-167.5 97.5t-110 144.5t-39.5 176q0 130 101 244.5t284 206.5q-13 16 -25.5 30.5
t-24.5 28.5q-5 5 -9 9.5t-8 9.5q-24 27 -45 52t-36 52.5t-23.5 60.5t-8.5 76q0 72 32.5 135t89 110.5t131.5 74.5t160 27q87 0 159 -27t123.5 -72.5t79.5 -105.5t28 -126q0 -53 -23 -102.5t-66 -96.5t-103 -91.5t-135 -86.5q18 -21 44 -48.5t55.5 -59t61 -65t60.5 -64.5h-1
q16 -17 30 -31t25 -26t17 -18.5t10 -10t6.5 -6.5t5.5 -7q26 55 48.5 115t40.5 116l188 -51q-28 -98 -63.5 -184t-70.5 -144q3 -4 6.5 -7.5t6.5 -7.5q5 -6 11 -12t11 -12q41 -47 90 -97t124 -107l-139 -146q-28 18 -56.5 41t-56 48t-53 50.5t-48.5 49.5z" />
    <glyph glyph-name="quotesingle" unicode="'" horiz-adv-x="372" 
d="M133 1199l-44 247v224h207v-228l-45 -243h-118z" />
    <glyph glyph-name="parenleft" unicode="(" horiz-adv-x="777" 
d="M569 -415q-40 52 -80.5 110.5t-79 120t-73.5 125.5t-63 127q-28 65 -51 135t-39.5 141t-25.5 142t-9 139q0 130 25 260t67 241q22 58 58.5 127.5t81 141t93.5 141.5t96 130h166q-90 -132 -135.5 -213.5t-64.5 -118.5q-15 -32 -32 -71.5t-33 -81.5t-29.5 -82t-22.5 -71
q-10 -45 -19.5 -96t-17 -104t-12 -105t-4.5 -98q0 -240 93 -499t277 -541h-166z" />
    <glyph glyph-name="parenright" unicode=")" horiz-adv-x="777" 
d="M130 -411q190 283 282 541.5t92 498.5q0 46 -3.5 99t-10.5 106.5t-16 104.5t-21 93q-8 29 -21.5 68.5t-29.5 81.5t-32 82.5t-30 71.5q-17 42 -69 127.5t-136 206.5h165q46 -61 94 -130.5t92.5 -140.5t81.5 -140t62 -129q43 -114 66 -242.5t23 -258.5q0 -68 -7 -140.5
t-22 -145t-37 -142.5t-52 -133q-61 -122 -137 -246t-166 -233h-168z" />
    <glyph glyph-name="asterisk" unicode="*" horiz-adv-x="1158" 
d="M646 1222l45 54l-1 -1q15 19 30.5 38t30.5 37q1 0 1 1t1 2q13 17 27.5 31t40.5 14h10q12 0 28.5 -3t33.5 -20t20 -33.5t3 -28.5v-10q0 -25 -15.5 -41t-33.5 -29h1q-19 -15 -36.5 -29.5t-34.5 -28.5q-13 -11 -17.5 -15.5t-8 -7.5t-9 -7.5t-19.5 -15.5q9 1 20 2t20 2
q31 3 61 6.5t61 6.5h17q30 0 49 -8t30.5 -20.5t15.5 -27.5t4 -29q0 -16 -3.5 -31.5t-14 -27.5t-30 -19.5t-50.5 -7.5q-5 0 -10 -0.5t-10 1.5q-39 4 -77 7.5t-77 8.5q-1 0 -3.5 0.5t-4.5 0.5q32 -26 63.5 -51.5t63.5 -51.5h-1q19 -14 34 -30t15 -41v-10q0 -12 -4 -29t-21 -34
q-13 -12 -26.5 -17t-29.5 -5q-25 0 -46 13t-38 35l1 -1q-20 23 -31.5 37.5t-21.5 26.5t-21.5 26t-30.5 37q2 -14 2.5 -27.5t2.5 -27.5l12 -108v-19q0 -31 -7 -50t-19 -29.5t-27.5 -14t-31.5 -3.5q-14 0 -29.5 3.5t-28 14t-20.5 30t-8 50.5v6q0 5 -0.5 7t1.5 7q3 34 7 68.5
t8 68.5q1 11 1.5 12.5t0.5 0.5t0 0.5t1 12.5q-8 -9 -16 -20t-16 -20q-19 -23 -37 -44.5t-36 -43.5l1 1q-18 -23 -39.5 -36t-45.5 -13q-33 0 -57 24t-24 57q0 23 13.5 45t34.5 39q9 8 19.5 16t19.5 16q18 14 27 21.5t16 13.5t16 13.5l27 22.5q-40 -5 -79.5 -8.5t-80.5 -7.5
q-4 -1 -8 -1h-7h-6q-31 0 -49.5 7.5t-29 19.5t-14 27.5t-3.5 31.5q0 14 3.5 29t14 27.5t29.5 20.5t50 8h18l163 -18q-6 5 -11.5 9t-11.5 9q-26 22 -51.5 44t-51.5 43l1 -1q-23 17 -36 38.5t-13 46.5q0 31 32 67q11 10 25.5 12t27.5 2h10q26 0 40.5 -14t27.5 -31q0 -1 2 -3
l1 -1q10 -12 20 -25t20 -24l19.5 -24t11.5 -14t11.5 -14t20.5 -24q-1 5 -1 11.5t-1 11.5q-4 35 -8 69t-7 69q-1 4 -1 7.5v6.5v5q0 31 8 50.5t20.5 30t28 14t29.5 3.5q15 0 30 -3.5t27 -14t20 -29.5t8 -50v-18z" />
    <glyph glyph-name="plus" unicode="+" horiz-adv-x="1054" 
d="M465 224v336h-368v176h368v336h177v-336h368v-176h-368v-336h-177z" />
    <glyph glyph-name="comma" unicode="," horiz-adv-x="542" 
d="M109 -164q40 46 68.5 84.5t45.5 70.5t25 59t8 51v6q-49 3 -83.5 33.5t-34.5 84.5q0 36 12 61.5t31.5 42t43.5 24.5t47 8q66 0 106 -42.5t40 -140.5q0 -53 -15.5 -108t-44 -110.5t-70 -109t-92.5 -101.5z" />
    <glyph glyph-name="hyphen" unicode="-" horiz-adv-x="777" 
d="M25 486v216h764v-216h-764z" />
    <glyph glyph-name="period" unicode="." horiz-adv-x="570" 
d="M152 246q0 27 10.5 51t28.5 42t42.5 28.5t52.5 10.5t52 -10t42 -28t28 -42t10 -52q0 -30 -10.5 -55t-28.5 -42.5t-42 -27.5t-51 -10t-51.5 10.5t-43 29t-29 43t-10.5 52.5z" />
    <glyph glyph-name="slash" unicode="/" horiz-adv-x="626" 
d="M-5 99l493 1571h168l-487 -1571h-174z" />
    <glyph glyph-name="zero" unicode="0" 
d="M512 304q67 0 120.5 38t94.5 111v-1q42 78 61 179.5t19 232.5q0 128 -16.5 234.5t-50.5 181.5q-33 67 -91.5 105.5t-136.5 38.5q-75 0 -131 -38t-94 -107v1q-37 -74 -54 -177.5t-17 -238.5q0 -130 18.5 -232t59.5 -177v1q40 -72 95.5 -111t122.5 -41zM512 114
q-120 0 -210.5 45t-151 137.5t-91 234t-30.5 333.5q0 384 121 566.5t362 182.5q129 0 221.5 -45t149.5 -142v1q57 -91 84 -230t27 -333q0 -188 -28.5 -330t-82.5 -235q-55 -91 -148 -138t-223 -47z" />
    <glyph glyph-name="one" unicode="1" horiz-adv-x="695" 
d="M347 114v1116h-224v190q81 2 128 10.5t63 22.5q14 18 23 54.5t11 105.5h183v-1499h-184z" />
    <glyph glyph-name="two" unicode="2" 
d="M29 114v178l682 715q38 38 57 82t19 91q0 45 -12.5 84t-39.5 70q-42 48 -99 69t-124 21q-70 0 -125.5 -23t-97.5 -67l1 1q-29 -34 -49.5 -89t-28.5 -110h-181q2 84 29 159.5t81 150.5l-1 -1q112 168 372 168q46 0 96.5 -8.5t99.5 -24.5t92 -39.5t74 -53.5v1
q30 -28 52.5 -65.5t37.5 -80.5t22.5 -89.5t7.5 -93.5q0 -88 -34 -159t-97 -133l-563 -563h694v-190h-965z" />
    <glyph glyph-name="three" unicode="3" horiz-adv-x="1041" 
d="M515 956q78 5 135.5 18.5t95.5 40.5q40 29 60 73.5t20 103.5q0 48 -19 91.5t-57 75.5l1 -1q-40 32 -97.5 49t-123.5 17q-145 0 -224 -90q-32 -35 -51 -88t-27 -110h-182q12 163 111 309q57 81 149.5 124.5t223.5 43.5q211 0 345 -110q135 -111 135 -311q0 -51 -15 -99
t-40.5 -90t-59 -77.5t-70.5 -61.5q38 -23 72 -56.5t59 -75.5t39.5 -91.5t14.5 -103.5q0 -112 -34 -193t-98 -130q-66 -48 -154.5 -74t-193.5 -26q-97 0 -185.5 34t-157.5 92q-66 60 -101.5 150t-37.5 221h180q6 -72 28.5 -133.5t57.5 -97.5v1q41 -39 95.5 -58t120.5 -19
q59 0 111.5 11.5t97.5 36.5q42 23 64.5 70.5t22.5 114.5q0 52 -19.5 95.5t-56.5 72.5q-38 28 -95 44.5t-140 21.5v185z" />
    <glyph glyph-name="four" unicode="4" 
d="M259 796h303v483zM562 114v489h-533v183l538 827h177v-817h250v-193h-250v-489h-182z" />
    <glyph glyph-name="five" unicode="5" 
d="M29 1592h918v-188h-731v-377q127 96 296 96q103 0 187.5 -36.5t155.5 -108.5q139 -139 139 -362q0 -112 -34 -200t-97 -159q-128 -143 -351 -143q-97 0 -180 22t-139 63q-48 35 -93.5 92t-74.5 132l170 73q50 -96 126 -144t191 -48q69 0 125 21.5t94 59.5q39 45 57.5 102
t18.5 129q0 67 -19 123.5t-61 100.5q-42 47 -96 69t-119 22q-56 0 -102.5 -10.5t-88.5 -30.5h1q-37 -17 -69 -47.5t-57 -78.5l-167 78v750z" />
    <glyph glyph-name="six" unicode="6" 
d="M512 304q68 0 119.5 18t93.5 58q44 42 63 100t19 136t-19.5 134.5t-60.5 100.5q-39 42 -92 61t-123 19q-42 0 -85 -7t-76 -18q-61 -22 -131 -97q2 -119 22.5 -211t63.5 -158q42 -68 95 -102t111 -34zM512 114q-130 0 -220 50.5t-147 155.5h1q-57 103 -87 238t-30 306
q0 184 31.5 320.5t91.5 232.5q63 98 150.5 147t209.5 49q91 0 158.5 -16t121.5 -45q48 -26 96 -67.5t99 -104.5l-129 -101q-68 66 -156 105.5t-190 39.5q-63 0 -114.5 -27t-89.5 -78v1q-32 -46 -53 -115t-31 -165q69 43 140.5 63t147.5 20q103 0 188.5 -37.5t156.5 -109.5
q68 -71 102.5 -159.5t34.5 -200.5q0 -214 -137 -357q-139 -145 -345 -145z" />
    <glyph glyph-name="seven" unicode="7" 
d="M22 114l721 1269h-734v189h964v-177l-732 -1281h-219z" />
    <glyph glyph-name="eight" unicode="8" 
d="M512 958q114 0 180 63q33 32 51.5 75.5t18.5 95.5q0 91 -63 160q-65 72 -187 72q-64 0 -109.5 -18t-75.5 -50q-33 -32 -49.5 -74t-16.5 -90q0 -53 15 -93.5t44 -72.5v1q31 -34 78 -51.5t114 -17.5zM512 304q68 0 122.5 14.5t93 44t59 73t20.5 101.5q0 59 -16.5 102.5
t-51.5 71.5q-37 29 -93 43.5t-134 14.5t-134 -12.5t-92 -40.5t-53 -72t-17 -107q0 -126 76 -177q41 -28 95 -42t125 -14zM512 114q-108 0 -193.5 30.5t-156.5 93.5q-66 61 -99.5 134t-33.5 165q0 225 191 348q-69 68 -107.5 145.5t-38.5 161.5q0 106 30 182.5t95 132.5
q63 52 140 79t177 27q89 0 162.5 -28t139.5 -82q69 -57 100 -132.5t31 -178.5q0 -94 -36 -169.5t-109 -140.5q190 -124 190 -345q0 -91 -34 -164t-103 -135q-67 -60 -151.5 -92t-193.5 -32z" />
    <glyph glyph-name="nine" unicode="9" 
d="M512 1424q-66 0 -118.5 -19.5t-95.5 -62.5q-82 -75 -82 -232q0 -78 18.5 -136t59.5 -98q42 -44 94 -62t124 -18q45 0 90 16t88 47q44 32 70.5 86.5t26.5 131.5q0 84 -16.5 147t-57.5 110q-38 44 -89 67t-112 23zM512 1613q63 0 116 -13.5t97.5 -40t82 -65.5t71.5 -90
q34 -52 56 -111t35 -126.5t18.5 -143t5.5 -159.5q0 -183 -31 -323.5t-92 -235t-151 -143t-208 -48.5q-85 0 -156 14.5t-127 46.5q-43 26 -93 69.5t-95 93.5l126 115q69 -71 156.5 -110t188.5 -39q61 0 113 27t90 78v-1q14 21 27.5 55t26 78.5t23 97.5t19.5 112
q-78 -75 -152 -111.5t-147 -36.5q-107 0 -192 38t-154 107q-71 72 -104 162.5t-33 199.5q0 106 34.5 197.5t101.5 162.5q68 69 155 106t192 37z" />
    <glyph glyph-name="colon" unicode=":" horiz-adv-x="570" 
d="M152 834q0 27 10.5 51t28.5 42t42.5 28.5t52.5 10.5t52 -10t42 -28t28 -42t10 -52t-10.5 -52.5t-28.5 -42.5t-42 -28.5t-51 -10.5t-51.5 10.5t-43 29t-29 43t-10.5 51.5zM152 247q0 27 10.5 51t28.5 42t42.5 28.5t52.5 10.5t52 -10t42 -28t28 -42t10 -52q0 -30 -10.5 -55
t-28.5 -42.5t-42 -27.5t-51 -10t-51.5 10.5t-43 29t-29 43t-10.5 52.5z" />
    <glyph glyph-name="semicolon" unicode=";" horiz-adv-x="542" 
d="M138 830q0 27 10.5 51t28.5 42t42.5 28.5t52.5 10.5t52 -10t42 -28t28 -42t10 -52t-10.5 -52.5t-28.5 -42.5t-42 -28.5t-51 -10.5t-51.5 10.5t-43 29t-29 43t-10.5 51.5zM109 -165q40 46 68.5 84.5t45.5 70.5t25 59t8 51v6q-49 3 -83.5 33.5t-34.5 84.5q0 36 12 61.5
t31.5 42t43.5 24.5t47 8q66 0 106 -42.5t40 -140.5q0 -53 -15.5 -108t-44 -110.5t-70 -109t-92.5 -101.5z" />
    <glyph glyph-name="less" unicode="&#x3c;" horiz-adv-x="1054" 
d="M93 541v169l917 352v-183l-671 -252q64 -24 125 -47.5t127 -48.5q103 -39 211 -80t208 -79v-184z" />
    <glyph glyph-name="equal" unicode="=" horiz-adv-x="1054" 
d="M1010 310h-913v174h913v-174zM1010 685h-913v176h913v-176z" />
    <glyph glyph-name="greater" unicode="&#x3e;" horiz-adv-x="1054" 
d="M1010 541l-917 -359v190l670 255q-86 32 -170 64t-172 64q-80 30 -165 61.5t-163 60.5v185l917 -348v-173z" />
    <glyph glyph-name="question" unicode="?" horiz-adv-x="867" 
d="M446 394q32 0 56.5 -11.5t41.5 -31t25.5 -45.5t8.5 -56q0 -28 -8.5 -53t-25.5 -43.5t-41.5 -29t-56.5 -10.5q-33 0 -59.5 10.5t-45.5 28.5t-29 43t-10 54q0 30 10 56t29 45.5t45.5 31t59.5 11.5zM529 452h-178v199q0 40 12.5 76t34.5 70.5t52.5 68t67.5 69.5q36 35 68 68
t56 65.5t38 66t14 69.5q0 44 -16.5 95.5t-46.5 95.5t-73 73.5t-96 29.5q-39 0 -80 -20t-74 -51.5t-54 -70t-21 -76.5q0 -23 9 -46t24 -41.5t35.5 -30.5t44.5 -12q16 0 33 4t30.5 12t22 21t8.5 30q0 7 0.5 14t0 17t-3 26t-9.5 43h99q12 -29 19 -49t10.5 -35.5t4.5 -28.5
t1 -28q0 -96 -55 -144t-161 -48q-65 0 -116.5 24.5t-87 66t-54 95t-18.5 110.5q0 75 32 141t86 115.5t125 78.5t149 29q90 0 162.5 -38t123.5 -100t79 -141t28 -161q0 -63 -16 -115t-46 -100.5t-73 -97t-97 -104.5q-8 -8 -14 -14.5t-12 -13.5q-19 -20 -32 -34.5t-21 -26.5
t-11.5 -23t-3.5 -24v-199z" />
    <glyph glyph-name="at" unicode="@" horiz-adv-x="1668" 
d="M582 582q0 -68 15 -120.5t41 -89.5q26 -34 54 -53t57 -19q26 0 56 14t61 40q37 31 67.5 76t57.5 107l-1 -1q23 63 35 130t12 133q0 69 -14 121.5t-40 87.5q-51 72 -123 72q-56 0 -116 -51q-28 -23 -57.5 -73.5t-53.5 -109.5q-21 -64 -36 -135t-15 -129zM1140 110
q-82 0 -123.5 33.5t-54.5 108.5q-60 -72 -123 -106t-121 -34q-65 0 -121 28.5t-101 91.5q-51 72 -78.5 162.5t-27.5 199.5q0 91 18 176.5t53 171.5q38 78 85.5 142.5t102.5 110.5q53 34 102 55t98 21q58 0 122.5 -42.5t121.5 -123.5q5 32 10 66t8 67h196l-123 -714
q-15 -74 -21.5 -111.5t-6.5 -43.5q0 -23 12 -38t28 -15q20 0 49 19t66 53q40 36 76.5 84.5t56.5 110.5q29 69 44.5 142t15.5 152q0 88 -19.5 169t-57.5 152l1 -1q-41 70 -95.5 127t-119.5 98h1q-63 37 -140.5 58.5t-154.5 21.5q-189 0 -342 -101.5t-253 -303.5v1
q-45 -105 -70.5 -220.5t-25.5 -248.5q0 -184 50 -326.5t143 -240.5t226 -149t299 -51q98 0 183.5 18.5t163.5 60.5h-1q72 39 132 98.5t102 131.5h195q-42 -89 -88 -154.5t-96 -116.5q-60 -58 -126.5 -101.5t-137.5 -74.5q-73 -27 -153.5 -42t-173.5 -15q-135 0 -250.5 30
t-211.5 86.5t-172.5 138t-132.5 184.5q-52 101 -82.5 232t-30.5 276q0 161 30.5 302.5t92.5 271.5v-1q56 130 134.5 225.5t170.5 155.5t203.5 91.5t229.5 31.5q210 0 374 -101t266 -294q48 -97 74.5 -202.5t26.5 -221.5q0 -161 -46 -299t-138 -259q-156 -204 -344 -204z" />
    <glyph glyph-name="A" unicode="A" horiz-adv-x="1452" 
d="M507 674h445q-27 72 -52.5 138t-51.5 132q-17 44 -31 80t-27.5 72t-28.5 75t-34 88zM91 106l544 1436h183l542 -1436h-198l-143 376h-584q-35 -91 -72.5 -189.5t-71.5 -186.5h-200z" />
    <glyph glyph-name="B" unicode="B" 
d="M305 986h200q97 0 156 52q54 47 54 127q0 37 -13.5 70.5t-42.5 60.5q-27 26 -65 40t-89 14h-200v-364zM305 302h211q43 0 80 10t63 36q28 26 42 76.5t14 119.5q0 67 -13.5 114.5t-42.5 74.5q-30 30 -68.5 43.5t-85.5 13.5h-200v-488zM505 1542q109 0 184.5 -27t125.5 -86
q48 -57 73 -129.5t25 -161.5q0 -40 -12.5 -76t-34 -68t-50 -60t-60.5 -50q31 -24 59.5 -56t50.5 -71t34.5 -85t12.5 -97q0 -242 -98.5 -355.5t-309.5 -113.5h-396v1436h396z" />
    <glyph glyph-name="C" unicode="C" horiz-adv-x="1259" 
d="M671 106q-127 0 -232.5 53.5t-179.5 148.5q-75 97 -112.5 227.5t-37.5 287.5q0 300 150 506q77 106 175.5 159.5t221.5 53.5q100 0 178.5 -22.5t138.5 -63.5q57 -39 103.5 -93.5t86.5 -133.5l-168 -85q-60 105 -139 155.5t-185 50.5q-82 0 -148.5 -41t-114.5 -116
q-53 -81 -78 -173t-25 -197q0 -99 26 -192.5t77 -173.5q48 -76 114.5 -115.5t148.5 -39.5q62 0 109.5 7t86.5 26q31 14 62 51t66 101l168 -67q-40 -83 -85 -143t-94 -97q-53 -38 -130.5 -56t-182.5 -18z" />
    <glyph glyph-name="D" unicode="D" horiz-adv-x="1206" 
d="M305 302h198q162 0 280 115q60 57 89.5 160t29.5 246q0 267 -103.5 397t-295.5 130h-198v-1048zM109 106v1436h394q123 0 228.5 -41.5t193.5 -126.5v1q88 -84 130.5 -219t42.5 -333q0 -183 -46.5 -320.5t-133.5 -225.5q-87 -81 -192.5 -126t-222.5 -45h-394z" />
    <glyph glyph-name="E" unicode="E" horiz-adv-x="1100" 
d="M109 106v1436h882v-192h-686v-429h467v-192h-467v-427h686v-196h-882z" />
    <glyph glyph-name="F" unicode="F" horiz-adv-x="1044" 
d="M109 106v1436h882v-192h-686v-429h467v-192h-467v-623h-196z" />
    <glyph glyph-name="G" unicode="G" horiz-adv-x="1259" 
d="M748 106q-165 0 -289.5 54t-199.5 148q-72 97 -111 230t-39 285q0 300 150 506q77 106 175.5 159.5t221.5 53.5q100 0 178.5 -22.5t138.5 -63.5q57 -39 103.5 -93.5t86.5 -133.5l-168 -85q-60 105 -139 155.5t-185 50.5q-82 0 -148.5 -41t-114.5 -116q-53 -81 -78 -173
t-25 -197q0 -100 27 -193.5t76 -172.5q48 -78 134.5 -116.5t207.5 -38.5q57 0 110 19t101 57v249h-301v192h489v-527q-41 -43 -90 -77.5t-101.5 -58.5t-106.5 -37t-103 -13z" />
    <glyph glyph-name="H" unicode="H" horiz-adv-x="1157" 
d="M109 106v1436h194v-621h549v621h196v-1436h-196v623h-549v-623h-194z" />
    <glyph glyph-name="I" unicode="I" horiz-adv-x="413" 
d="M109 106v1436h194v-1436h-194z" />
    <glyph glyph-name="J" unicode="J" horiz-adv-x="1037" 
d="M521 106q-85 0 -163 29t-135 78q-46 40 -78 123.5t-38 193.5h196q5 -118 57.5 -173t160.5 -55q58 0 99 14.5t67 41.5t37.5 66t11.5 88v1030h192v-1030q0 -99 -30.5 -177.5t-81.5 -126.5q-116 -102 -295 -102z" />
    <glyph glyph-name="K" unicode="K" horiz-adv-x="1174" 
d="M109 106v1436h196v-631q21 27 42.5 54t43.5 54q103 130 208 263t205 260h238l-502 -645q75 -105 154.5 -216.5t157.5 -222.5q28 -41 61 -87t66 -92.5t64.5 -91t58.5 -81.5h-237l-452 630q-12 -16 -24.5 -31t-23.5 -31q-17 -21 -30.5 -39.5t-29.5 -39.5v-489h-196z" />
    <glyph glyph-name="L" unicode="L" horiz-adv-x="1100" 
d="M109 106v1436h196v-1240h686v-196h-882z" />
    <glyph glyph-name="M" unicode="M" horiz-adv-x="1502" 
d="M109 106v1436h188l455 -744l140 228t141 230q43 70 87.5 143.5t86.5 142.5h186v-1436h-193v1057q-62 -101 -126 -203.5t-127 -205.5q-23 -37 -48.5 -78.5l-51 -83t-50.5 -82t-47 -76.5l-445 729v-1057h-196z" />
    <glyph glyph-name="N" unicode="N" horiz-adv-x="1253" 
d="M958 106l-653 1055v-1055h-196v1436h188l654 -1050v1050h193v-1436h-186z" />
    <glyph glyph-name="O" unicode="O" horiz-adv-x="1349" 
d="M672 302q85 0 154 32t117 98t74.5 167t26.5 224q0 113 -27 211t-75 170h1q-48 70 -117 108t-154 38q-74 0 -140.5 -36t-118.5 -102q-55 -69 -80.5 -165.5t-25.5 -223.5q0 -124 30.5 -223t86.5 -166v1q55 -60 120.5 -96.5t127.5 -36.5zM672 106q-114 0 -213 53t-180 147
q-78 100 -124 231.5t-46 285.5q0 71 10.5 142t30 137.5t47 125.5t62.5 106q34 47 81 85.5t101 65.5t113 42t118 15q121 0 222.5 -49.5t180.5 -140.5q79 -97 122 -229t43 -300q0 -160 -42 -287.5t-123 -229.5q-81 -100 -180 -150t-223 -50z" />
    <glyph glyph-name="P" unicode="P" 
d="M305 921h211q44 0 80 12.5t63 38.5q56 53 56 166q0 51 -13.5 91t-42.5 67q-27 26 -65 40t-89 14h-200v-429zM505 1542q109 0 184.5 -27t125.5 -86q48 -57 73 -129.5t25 -161.5q0 -204 -100 -306.5t-308 -102.5h-200v-623h-196v1436h396z" />
    <glyph glyph-name="Q" unicode="Q" horiz-adv-x="1361" 
d="M722 496l149 153l117 -117q28 54 42 124.5t14 166.5q0 112 -27.5 211t-75.5 170q-47 69 -115.5 107.5t-153.5 38.5q-74 0 -141.5 -35t-117.5 -101q-55 -69 -81.5 -167.5t-26.5 -223.5q0 -129 29 -226t90 -163q60 -66 120.5 -99t127.5 -33q50 0 97.5 14t86.5 50zM672 106
q-114 0 -213 53t-180 147q-78 100 -124 231.5t-46 285.5q0 71 10.5 142t30 137.5t47 125.5t62.5 106q34 47 81 85.5t101 65.5t113 42t118 15q245 0 403 -191q78 -97 121.5 -228.5t43.5 -299.5q0 -140 -25 -251t-73 -195q12 -12 25 -24.5t26 -25.5q16 -16 39 -37.5t37 -35.5
l-152 -155l-123 124q-73 -63 -151 -90t-171 -27z" />
    <glyph glyph-name="R" unicode="R" horiz-adv-x="1102" 
d="M305 921h211q44 0 80 12.5t63 38.5q28 28 42 68.5t14 97.5q0 52 -13 92.5t-41 67.5q-29 27 -67 39.5t-89 12.5h-200v-429zM505 1542q108 0 183.5 -27t128.5 -86q51 -57 73.5 -130t22.5 -161q0 -63 -9.5 -111t-31 -87t-57.5 -72.5t-90 -67.5q22 -24 41 -58t35 -75t30 -86
t25 -90q15 -58 35 -112.5t42.5 -103.5t46.5 -92t47 -77h-207q-18 16 -35 46.5t-33.5 71t-32 90t-30.5 102.5q-17 63 -35.5 120t-38.5 99.5t-42.5 68t-47.5 25.5h-220v-623h-196v1436h396z" />
    <glyph glyph-name="S" unicode="S" horiz-adv-x="1035" 
d="M519 106q-82 0 -152 16.5t-117 57.5q-41 35 -76.5 80.5t-73.5 106.5l153 129q33 -57 67.5 -99.5t59.5 -60.5h-1q29 -20 63 -27t77 -7q48 0 86.5 10t68.5 34q27 21 42.5 62.5t15.5 94.5q0 47 -17.5 90.5t-45.5 69.5q-17 16 -43 34t-59 37t-71.5 39t-80.5 39
q-65 29 -124 62.5t-99 73.5q-38 43 -60.5 97t-22.5 116q0 88 29.5 159.5t89.5 121.5q60 49 133 74.5t158 25.5q110 0 204.5 -46t174.5 -148l-149 -118q-51 57 -108.5 88.5t-121.5 31.5q-43 0 -80 -13t-73 -38q-61 -40 -61 -121q0 -30 16 -60t43.5 -58t64.5 -52t79 -43
q106 -48 187.5 -97t128.5 -99q49 -53 76 -117t27 -140q0 -194 -103 -300t-305 -106z" />
    <glyph glyph-name="T" unicode="T" horiz-adv-x="1350" 
d="M109 1350v192h1133v-192h-468v-1244h-195v1244h-470z" />
    <glyph glyph-name="U" unicode="U" horiz-adv-x="1190" 
d="M109 1542h196v-951q0 -65 20.5 -121t58.5 -95q36 -39 91.5 -56t121.5 -17q63 0 117 19t92 55q41 39 60 95t19 120v951h196v-951q0 -109 -35.5 -193t-107.5 -155q-70 -69 -154 -103t-187 -34q-211 0 -350 137q-72 69 -105 154t-33 194v951z" />
    <glyph glyph-name="V" unicode="V" horiz-adv-x="1485" 
d="M653 106l-564 1436h202l450 -1160q68 176 136.5 352t137.5 353q44 112 89 228.5t88 226.5h204l-565 -1436h-178z" />
    <glyph glyph-name="W" unicode="W" horiz-adv-x="2062" 
d="M617 106l-526 1436h198l417 -1151q32 94 63.5 188t64.5 189v-1q26 75 54 156.5t53 154.5h182l239 -686q53 149 106.5 298t107.5 300q49 137 99.5 277.5t98.5 274.5h197l-523 -1436h-180l-236 681q-33 -97 -67 -194.5t-68 -195.5q-25 -71 -51.5 -146.5t-50.5 -144.5h-178z
" />
    <glyph glyph-name="X" unicode="X" horiz-adv-x="1164" 
d="M82 106l401 716q-38 70 -78.5 142.5t-82.5 147.5q-29 51 -60 106.5t-62.5 111.5t-61.5 110t-57 102h206l296 -533q44 78 92.5 165.5t93.5 168.5q27 48 56.5 100.5t55.5 98.5h202l-401 -719q33 -60 69.5 -122.5t71.5 -126.5h-1q31 -56 65 -116.5t67.5 -121.5t66.5 -119.5
t62 -110.5h-202l-299 558q-35 -67 -70.5 -133.5t-71.5 -134.5q-37 -69 -77.5 -146t-75.5 -144h-205z" />
    <glyph glyph-name="Y" unicode="Y" horiz-adv-x="1162" 
d="M485 106v713q-60 108 -124 222t-128 229q-17 31 -37 66.5t-40.5 71.5t-40 70.5t-35.5 63.5h203l297 -532q30 54 61 107.5t62 109.5q42 77 87.5 158.5t86.5 156.5h205l-405 -723v-713h-192z" />
    <glyph glyph-name="Z" unicode="Z" horiz-adv-x="1190" 
d="M109 106v164l733 1098h-733v174h972v-161l-732 -1098h732v-177h-972z" />
    <glyph glyph-name="bracketleft" unicode="[" horiz-adv-x="486" 
d="M111 -306v1970h377v-193h-184v-1585h184v-192h-377z" />
    <glyph glyph-name="backslash" unicode="\" horiz-adv-x="486" 
d="M359 69l-369 1599h160l373 -1599h-164z" />
    <glyph glyph-name="bracketright" unicode="]" horiz-adv-x="486" 
d="M406 -306h-377v192h187v1585h-187v193h377v-1970z" />
    <glyph glyph-name="asciicircum" unicode="^" horiz-adv-x="794" 
d="M220 808h-190l310 860h150l315 -860h-195l-195 573z" />
    <glyph glyph-name="underscore" unicode="_" horiz-adv-x="933" 
d="M-24 -9h1022v-140h-1022v140z" />
    <glyph glyph-name="grave" unicode="`" horiz-adv-x="575" 
d="M436 1344h-166l-213 326h247z" />
    <glyph glyph-name="a" unicode="a" horiz-adv-x="873" 
d="M610 526q-74 -31 -170 -31q-100 0 -140 -26v1q-20 -14 -29.5 -31t-9.5 -41q0 -52 42.5 -74t131.5 -22q34 0 68 5t60 13l-2 -1q23 10 36 30t13 49v128zM48 837q43 67 84 115.5t78 68.5v-1q52 29 105.5 43.5t119.5 14.5q106 0 180 -27.5t112 -80.5q33 -48 55 -110.5
t22 -124.5v-629h-194v21q-38 -10 -83.5 -15.5t-91.5 -5.5q-79 0 -151.5 21.5t-118.5 59.5q-48 41 -74 96.5t-26 114.5q0 56 17.5 106.5t52.5 93.5l-1 -1q69 90 301 90q51 0 87 8t54 21q14 11 24 28.5t10 36.5q0 20 -11 37t-28 34v-1q-17 16 -52.5 23.5t-83.5 7.5
q-25 0 -55 -4t-54 -15q-18 -7 -38 -31.5t-34 -61.5z" />
    <glyph glyph-name="b" unicode="b" horiz-adv-x="986" 
d="M509 882q-51 0 -90 -17.5t-65 -46.5v1q-29 -32 -42.5 -91.5t-13.5 -136.5q0 -78 13.5 -136t42.5 -92q27 -32 67 -46.5t88 -14.5q46 0 86 16t67 45q28 35 45 93t17 135q0 74 -15.5 135t-44.5 93l1 -2q-28 26 -69.5 45.5t-86.5 19.5zM101 106v1436h197v-531q46 32 99 49.5
t112 17.5q86 0 161.5 -33t131.5 -90q57 -59 86 -152t29 -212q0 -125 -29.5 -212.5t-83.5 -147.5q-113 -125 -295 -125q-57 0 -111.5 16.5t-99.5 46.5v-63h-197z" />
    <glyph glyph-name="c" unicode="c" horiz-adv-x="900" 
d="M670 789q-38 45 -87 69t-108 24q-104 0 -158 -62q-56 -62 -56 -229q0 -81 16 -139t41 -90l-1 1q26 -32 66 -46.5t92 -14.5q60 0 108 27.5t86 81.5l191 -61q-80 -119 -176.5 -181.5t-208.5 -62.5q-172 0 -293 124q-58 60 -87.5 149t-29.5 212q0 119 28 211.5t87 152.5
q57 57 130 90t165 33q109 0 207 -63.5t180 -191.5z" />
    <glyph glyph-name="d" unicode="d" horiz-adv-x="986" 
d="M477 882q-51 0 -92 -16t-66 -46t-41 -90.5t-16 -138.5q0 -80 16.5 -138.5t42.5 -91.5q24 -32 64 -45.5t92 -13.5q48 0 87.5 14t66.5 47q58 69 58 228q0 76 -14 136t-43 92q-27 29 -67 46t-88 17zM689 106v64q-89 -64 -212 -64q-91 0 -162 31t-131 91q-58 57 -88 148.5
t-30 214.5q0 119 29 210.5t89 153.5q59 59 130.5 91t162.5 32q63 0 115 -16t97 -49v529h194v-1436h-194z" />
    <glyph glyph-name="e" unicode="e" horiz-adv-x="953" 
d="M679 733q-6 35 -18.5 59t-32.5 40q-28 25 -64 37.5t-87 12.5t-89 -11t-64 -37q-18 -17 -31.5 -41t-20.5 -60h407zM854 339q-159 -233 -377 -233q-91 0 -162 31t-131 91q-58 57 -88 148.5t-30 214.5q0 119 29 212t87 152q59 59 130.5 91t164.5 32q86 0 160 -32t134 -91
q54 -55 83 -159.5t29 -255.5h-619q11 -122 66.5 -180t146.5 -58q60 0 108 29t86 82z" />
    <glyph glyph-name="f" unicode="f" horiz-adv-x="720" 
d="M227 106v776h-162v196h162v135q0 38 4.5 74.5t13.5 68.5t22.5 59t30.5 46q38 41 94.5 61t114.5 20q38 0 73 -9.5t71 -29.5v-184q-40 13 -79.5 22t-64.5 9q-46 0 -68 -30.5t-22 -106.5v-135h155v-196h-155v-776h-190z" />
    <glyph glyph-name="g" unicode="g" horiz-adv-x="986" 
d="M477 882q-51 0 -92 -16t-66 -46t-41 -90.5t-16 -138.5q0 -80 16.5 -138.5t42.5 -91.5q24 -32 64 -45.5t92 -13.5q48 0 87.5 14t66.5 47q58 69 58 228q0 76 -14 136t-43 92q-27 29 -67 46t-88 17zM275 -150q86 0 161.5 7t131.5 26.5t88.5 54.5t32.5 92v140
q-89 -64 -212 -64q-91 0 -162 31t-131 91q-58 57 -88 148.5t-30 214.5q0 119 29 210.5t89 153.5q59 59 130.5 91t162.5 32q63 0 115 -16t97 -49v65h194v-1043q0 -78 -21 -135.5t-57.5 -98.5t-85.5 -67.5t-105 -41.5t-117 -20.5t-120 -5.5q-8 0 -22 0.5t-29.5 1t-29.5 1
t-21 0.5v181z" />
    <glyph glyph-name="h" unicode="h" horiz-adv-x="986" 
d="M101 106v1436h197v-531q46 32 99 49.5t112 17.5q86 0 161.5 -33t131.5 -90q57 -59 86 -152t29 -212v-485h-193v485q0 74 -15.5 135t-44.5 93l1 -2q-28 26 -69.5 45.5t-86.5 19.5q-51 0 -90 -17.5t-65 -46.5v1q-29 -32 -42.5 -91.5t-13.5 -136.5v-485h-197z" />
    <glyph glyph-name="i" unicode="i" horiz-adv-x="501" 
d="M250 1387q46 0 70.5 -28.5t24.5 -67.5q0 -47 -24.5 -71.5t-70.5 -24.5q-48 0 -71.5 24.5t-23.5 71.5q0 39 23.5 67.5t71.5 28.5zM155 106v972h190v-972h-190z" />
    <glyph glyph-name="j" unicode="j" horiz-adv-x="501" 
d="M250 1387q46 0 70.5 -28.5t24.5 -67.5q0 -47 -24.5 -71.5t-70.5 -24.5q-48 0 -71.5 24.5t-23.5 71.5q0 39 23.5 67.5t71.5 28.5zM155 -360v1438h190v-1438h-190z" />
    <glyph glyph-name="k" unicode="k" horiz-adv-x="986" 
d="M101 106v1436h197v-783q29 30 57 60t57 60q46 48 96 100.5t95 98.5h265l-298 -313q26 -45 52 -90.5t54 -93.5q32 -56 67 -117.5t70.5 -123.5t69.5 -122t64 -112h-223l-289 533q-11 -10 -22 -20.5t-22 -21.5q-26 -23 -47.5 -43.5t-45.5 -43.5v-404h-197z" />
    <glyph glyph-name="l" unicode="l" horiz-adv-x="501" 
d="M155 106v1436h190v-1436h-190z" />
    <glyph glyph-name="m" unicode="m" horiz-adv-x="1586" 
d="M80 106v972h192v-67q48 32 103 49.5t113 17.5q99 0 175.5 -40.5t134.5 -107.5q58 67 133.5 107.5t177.5 40.5q91 0 163.5 -33t128.5 -90q57 -60 86 -152.5t29 -211.5v-485h-192v485q0 81 -14 140t-41 89q-31 29 -70.5 45.5t-89.5 16.5q-47 0 -86.5 -18t-68.5 -45
q-29 -32 -43 -90.5t-14 -137.5v-485h-193v485q0 77 -15.5 136.5t-44.5 91.5q-26 30 -65.5 46.5t-90.5 16.5q-48 0 -87.5 -18t-68.5 -45q-29 -32 -44.5 -89.5t-15.5 -138.5v-485h-192z" />
    <glyph glyph-name="n" unicode="n" horiz-adv-x="967" 
d="M80 106v972h194v-67q94 67 214 67q87 0 162 -33t131 -90q57 -59 87.5 -152t30.5 -212v-485h-195v485q0 76 -15.5 136.5t-43.5 91.5l1 -1q-26 28 -68 46t-90 18q-51 0 -90.5 -15.5t-65.5 -46.5q-26 -30 -42 -91.5t-16 -137.5v-485h-194z" />
    <glyph glyph-name="o" unicode="o" horiz-adv-x="953" 
d="M477 882q-51 0 -92 -16t-66 -46t-41 -90.5t-16 -138.5q0 -80 16.5 -138.5t42.5 -91.5q24 -32 64 -45.5t92 -13.5q48 0 87.5 14t66.5 47q58 69 58 228q0 76 -14 136t-43 92q-27 29 -67 46t-88 17zM66 591q0 119 29 210.5t89 153.5q59 59 130.5 91t162.5 32
q87 0 160.5 -31.5t133.5 -91.5q57 -57 84.5 -151t27.5 -213q0 -245 -110 -361q-118 -124 -296 -124q-91 0 -162 31t-131 91q-58 57 -88 148.5t-30 214.5z" />
    <glyph glyph-name="p" unicode="p" horiz-adv-x="986" 
d="M509 882q-51 0 -90 -17.5t-65 -46.5v1q-29 -32 -42.5 -91.5t-13.5 -136.5q0 -78 13.5 -136t42.5 -92q27 -32 67 -46.5t88 -14.5q46 0 86 16t67 45q28 35 45 93t17 135q0 74 -15.5 135t-44.5 93l1 -2q-28 26 -69.5 45.5t-86.5 19.5zM101 -360v1438h197v-67q46 32 99 49.5
t112 17.5q86 0 161.5 -33t131.5 -90q57 -59 86 -152t29 -212q0 -125 -29.5 -212.5t-83.5 -147.5q-113 -125 -295 -125q-57 0 -111.5 16.5t-99.5 46.5v-529h-197z" />
    <glyph glyph-name="q" unicode="q" horiz-adv-x="986" 
d="M477 882q-51 0 -92 -16t-66 -46t-41 -90.5t-16 -138.5q0 -80 16.5 -138.5t42.5 -91.5q24 -32 64 -45.5t92 -13.5q48 0 87.5 14t66.5 47q58 69 58 228q0 76 -14 136t-43 92q-27 29 -67 46t-88 17zM689 -360v530q-89 -64 -212 -64q-91 0 -162 31t-131 91q-58 57 -88 148.5
t-30 214.5q0 119 29 210.5t89 153.5q59 59 130.5 91t162.5 32q63 0 115 -16t97 -49v65h194v-1438h-194z" />
    <glyph glyph-name="r" unicode="r" horiz-adv-x="856" 
d="M80 106v972h192v-65q47 34 99.5 49.5t114.5 15.5q97 0 173.5 -35t142.5 -109l-113 -148q-51 48 -100 72t-103 24q-50 0 -88.5 -16.5t-68.5 -46.5h1q-30 -32 -44 -89.5t-14 -138.5v-485h-192z" />
    <glyph glyph-name="s" unicode="s" horiz-adv-x="794" 
d="M570 801q-62 81 -174 81q-85 0 -110 -27q-24 -24 -24 -72q0 -16 56 -47.5t146 -74.5h-1q57 -26 105 -57.5t83 -66t54.5 -70.5t19.5 -71q0 -59 -19 -112.5t-55 -95.5q-35 -38 -101.5 -60t-153.5 -22q-113 0 -196 57t-139 178l182 59q20 -50 59 -74t94 -24q69 0 103 19.5
t34 74.5q0 10 -16.5 24.5t-44 31t-64 34t-76.5 34.5q-60 26 -109 57.5t-84 66t-54.5 70t-19.5 69.5q0 65 19.5 117.5t54.5 91.5q38 43 103.5 64.5t153.5 21.5q109 0 194 -44.5t146 -138.5z" />
    <glyph glyph-name="t" unicode="t" horiz-adv-x="720" 
d="M417 1387v-309h234v-196h-234v-446q0 -41 5.5 -69.5t16.5 -41.5q11 -12 28.5 -17.5t39.5 -5.5q26 0 61 6t83 20v-181q-35 -21 -71.5 -31t-72.5 -10q-60 0 -113.5 17.5t-94.5 58.5q-41 43 -56.5 105t-15.5 149v446h-162v196h162v309h190z" />
    <glyph glyph-name="u" unicode="u" horiz-adv-x="967" 
d="M886 1078v-972h-194v66q-46 -32 -100.5 -49t-114.5 -17q-87 0 -159 31.5t-133 88.5q-119 116 -119 365v487h196v-487q0 -77 17.5 -137t43.5 -93q26 -30 65.5 -44.5t88.5 -14.5q47 0 86.5 14.5t68.5 46.5q29 33 44.5 90.5t15.5 137.5v487h194z" />
    <glyph glyph-name="v" unicode="v" horiz-adv-x="1079" 
d="M45 1078h207l288 -711q2 3 3 8t3 8q69 171 140.5 348.5t140.5 346.5h206l-408 -972h-172z" />
    <glyph glyph-name="w" unicode="w" horiz-adv-x="1625" 
d="M50 1078h196l237 -690q30 89 60.5 177t61.5 179q28 81 58 168t57 166h181l238 -691q29 84 59 172t60.5 176t60.5 174.5t58 168.5h194l-341 -972h-184l-235 686q-30 -86 -59 -172t-59 -174q-14 -40 -28.5 -83.5t-29.5 -87.5t-30 -87t-28 -82h-185z" />
    <glyph glyph-name="x" unicode="x" horiz-adv-x="907" 
d="M31 1078h201l223 -330q30 45 57.5 87t57.5 88q25 37 52 78t51 77h206l-326 -487q35 -51 72.5 -107.5t75.5 -113.5q21 -30 44.5 -65.5t47.5 -71t46.5 -69t39.5 -58.5h-204l-219 332q-22 -33 -47.5 -70t-48.5 -71q-31 -45 -65 -96t-63 -95h-204l320 484z" />
    <glyph glyph-name="y" unicode="y" horiz-adv-x="1090" 
d="M55 1078h199l299 -717q48 114 95.5 229t95.5 230h-1q26 63 54 130t54 128h196l-479 -1115q-69 -160 -155.5 -241.5t-171.5 -81.5h-175v173h175q25 0 61.5 43t75.5 121q11 23 23 48t24 48q8 17 14 28.5t14 27.5z" />
    <glyph glyph-name="z" unicode="z" horiz-adv-x="954" 
d="M66 874v186h820v-177l-560 -590h560v-187h-820v176l560 592h-560z" />
    <glyph glyph-name="braceleft" unicode="{" horiz-adv-x="577" 
d="M41 753q58 5 101 39t55 84q8 35 13.5 102t5.5 157t2.5 154t5.5 97q5 48 18 95t33 79q34 53 86 75.5t138 22.5h69v-197h-46q-37 0 -62 -10t-39 -27h1q-14 -17 -22 -56t-8 -102q0 -140 -1 -232.5t-7 -128.5q-8 -47 -24.5 -91.5t-35.5 -75.5q-28 -46 -91 -93
q42 -28 68.5 -59.5t45.5 -71.5q23 -53 34 -133t11 -195q0 -112 2.5 -179.5t6.5 -84.5q4 -20 14 -38t21 -29q13 -8 36.5 -13t49.5 -5h46v-201h-69q-46 0 -81.5 8.5t-58.5 20.5q-23 13 -43 27t-37 40h1q-23 32 -34 70t-16 73q-6 40 -10 114.5t-4 174.5q0 94 -6.5 158t-13.5 99
l1 -1q-15 64 -50 93h1q-17 14 -42 23.5t-65 15.5v201z" />
    <glyph glyph-name="bar" unicode="|" horiz-adv-x="183" 
d="M9 -446v2114h166v-2114h-166z" />
    <glyph glyph-name="braceright" unicode="}" horiz-adv-x="577" 
d="M560 550q-63 -6 -103 -41t-57 -92v1q-8 -32 -12 -96t-4 -158q0 -93 -4 -155.5t-7 -96.5q-5 -45 -18.5 -91t-33.5 -83l1 1q-28 -52 -82 -77.5t-142 -25.5h-69v201h46q40 0 65.5 10t39.5 25q12 13 17.5 53.5t5.5 107.5q0 145 3 236t10 127v-1q14 93 49 153.5t101 102.5
q-42 32 -73 69.5t-48 70.5q-18 48 -30 130.5t-12 190.5q0 112 -1.5 178t-6.5 86q-5 22 -12 38t-19 24q-13 10 -34 16.5t-55 6.5h-46v197h69q45 0 80 -3.5t64 -20.5l-1 1q23 -12 43 -30.5t34 -41.5q19 -30 34 -69.5t19 -76.5q5 -38 9 -110.5t4 -171.5q0 -93 4 -158.5
t12 -98.5q9 -32 22.5 -57t31.5 -39q12 -11 39 -18.5t67 -12.5v-201z" />
    <glyph glyph-name="asciitilde" unicode="~" horiz-adv-x="978" 
d="M60 925q107 137 253 137q26 0 55.5 -5.5t56.5 -14.5q29 -10 75 -28.5t91 -41.5q89 -47 138 -47q22 0 43 7.5t41 19.5q13 8 27.5 19t32.5 25.5t40.5 33.5t51.5 45v-257q-122 -127 -255 -127q-27 0 -50.5 2t-50.5 10q-20 6 -41 16.5t-51 26.5q-6 3 -12.5 6.5t-13.5 7.5
l-21 12l1 -1q-52 26 -96.5 42.5t-78.5 16.5q-18 0 -40 -8t-50 -22q-7 -3 -21.5 -15t-33.5 -30t-42.5 -41t-48.5 -48v259z" />
    <glyph glyph-name="degree" unicode="&#xb0;" horiz-adv-x="889" 
d="M287 1307q0 -33 14 -60t37.5 -46.5t54.5 -30t66 -10.5t66.5 10.5t55 30t37.5 46.5t14 60q0 28 -14 53.5t-37.5 45t-55 31t-66.5 11.5t-66 -11.5t-54.5 -31t-37.5 -45t-14 -53.5zM138 1307q0 59 26.5 113t71 94.5t102.5 64.5t121 24q65 0 123.5 -24t103 -64.5t70.5 -94.5
t26 -113q0 -65 -26 -121t-70.5 -97t-103 -64t-123.5 -23q-62 0 -120 23t-102.5 63.5t-71.5 96.5t-27 122z" />
    <glyph glyph-name="section" unicode="&#xa7;" horiz-adv-x="1110" 
d="M739 499q64 35 97 71t33 67q0 17 -14.5 41.5t-37.5 50.5v-1q-21 25 -77.5 63t-137.5 85q-50 28 -100 58t-92 59q-36 -21 -61 -39.5t-40.5 -35.5t-22.5 -33.5t-7 -34.5q0 -25 11 -47t38.5 -47t75 -55.5t120.5 -73.5v1q55 -32 103.5 -62t93.5 -56q5 -4 7 -5t9 -5zM348 242
q31 -111 90.5 -162.5t154.5 -51.5q43 0 79.5 10t62 28t40 42t14.5 52q0 16 -8 31.5t-22 31.5q-29 33 -114 88.5t-215 126.5q-69 38 -121.5 69.5t-89.5 61.5l1 -1q-28 22 -53 53t-44 65.5t-30.5 71t-11.5 71.5q0 41 9.5 78t33 70t62 62t96.5 54q-59 60 -81 111.5t-22 102.5
q0 60 26 115.5t75 98.5t118.5 69t156.5 26q184 0 292.5 -93.5t144.5 -265.5l-221 -28q-13 59 -31 97.5t-42.5 61t-55.5 31.5t-69 9q-41 0 -75 -9t-59.5 -25t-39.5 -36.5t-14 -43.5q0 -17 7.5 -33.5t21.5 -34.5q14 -14 42 -35.5t67 -47t87.5 -54t102.5 -56.5q31 -16 63 -34
t61.5 -35t53 -33t38.5 -28h-1q65 -54 104.5 -116t39.5 -137q0 -56 -21 -105.5t-59 -87.5q-7 -7 -20.5 -16t-30 -19.5t-35.5 -20.5t-37 -19q69 -61 101.5 -119.5t32.5 -119.5q0 -68 -28.5 -126.5t-81.5 -101t-129 -67t-171 -24.5q-186 0 -300.5 97t-158.5 274z" />
    <glyph glyph-name="bullet" unicode="&#x2022;" horiz-adv-x="776" 
d="M119 835q0 58 23.5 108.5t63.5 88t93 59t111 21.5q60 0 113.5 -22t94 -60t64 -88t23.5 -107q0 -56 -23.5 -106.5t-64 -88.5t-94 -60.5t-113.5 -22.5q-58 0 -111 22.5t-93 60.5t-63.5 88.5t-23.5 106.5z" />
    <glyph glyph-name="paragraph" unicode="&#xb6;" horiz-adv-x="1194" 
d="M453 -301v1044q-103 16 -185 53t-139.5 92t-88 126.5t-30.5 156.5q0 103 33 185t100 139t167 87t234 30h704v-218h-156v-1695h-214v1695h-217v-1695h-208z" />
    <glyph glyph-name="registered" unicode="&#xae;" horiz-adv-x="1634" 
d="M656 906h158q55 0 93 8t62 21.5t34.5 31.5t10.5 39q0 97 -209 97h-149v-197zM482 401v857h323q75 0 132 -5.5t93 -15.5q32 -10 62.5 -32t54.5 -51.5t38.5 -64t14.5 -70.5q0 -39 -13 -76t-38.5 -68.5t-63 -56.5t-87.5 -39q49 -39 83 -84.5t68 -95.5q8 -12 19 -27.5t28 -38
t42 -54.5t62 -78h-238q-72 125 -128 209.5t-100 112.5q-17 11 -43 18t-62 7h-73v-347h-174zM862 1445q-40 0 -84 -6t-88 -16.5t-86 -25t-78 -31.5q-37 -17 -72.5 -42t-68 -55t-60.5 -63t-50 -65q-45 -71 -68.5 -147.5t-23.5 -153.5q0 -145 93 -296l-1 1q46 -72 107.5 -128.5
t142.5 -99.5q74 -42 161.5 -60t175.5 -18t173 18.5t167 60.5q79 40 138.5 97.5t104.5 129.5q95 148 95 295q0 36 -7 75t-19.5 78.5t-30 77t-38.5 70.5q-45 66 -110 127t-142 98q-159 79 -331 79zM862 1620q103 0 204.5 -25.5t206.5 -74.5q100 -48 179.5 -123t136.5 -164
q56 -89 83.5 -190t27.5 -203q0 -100 -26 -195t-85 -189t-136 -166.5t-177 -122.5q-104 -51 -204 -74.5t-210 -23.5t-214 23.5t-207 74.5q-94 48 -171 122t-137 166q-57 90 -87 188.5t-30 196.5q0 105 29 201t87 191q58 96 136.5 166.5t180.5 120.5q105 50 207.5 75.5
t205.5 25.5z" />
    <glyph glyph-name="copyright" unicode="&#xa9;" horiz-adv-x="1634" 
d="M1285 706q-29 -81 -74.5 -142t-102 -101t-119.5 -60t-127 -20q-100 0 -182.5 31t-142 89.5t-92 142.5t-32.5 189q0 108 33.5 192.5t93 142t142 87.5t180.5 30q69 0 130.5 -20.5t114 -57.5t96.5 -90t79 -117l-173 -23q-41 78 -99 113t-145 35q-57 0 -107 -19t-87 -56.5
t-58.5 -92.5t-21.5 -126t20 -124.5t55.5 -89.5t83 -54t102.5 -18q91 0 160 51t110 136zM862 1438q-39 0 -82.5 -5t-88 -14.5t-86.5 -24t-78 -33.5q-76 -38 -142 -97t-110 -126v1q-92 -147 -92 -302q0 -74 24 -150t68 -147q44 -67 108 -125.5t142 -99.5q75 -42 162 -61
t175 -19t173 19.5t167 61.5q79 41 138.5 96.5t103.5 126.5q48 75 72 148t24 150q0 73 -25.5 152.5t-70.5 148.5q-44 68 -108 128t-142 95q-163 77 -332 77zM862 1614q204 0 411 -97q100 -48 179.5 -124t136.5 -165q56 -89 83.5 -191.5t27.5 -199.5q0 -100 -26 -196.5
t-85 -190.5h1q-60 -96 -137 -168t-177 -119q-103 -50 -203.5 -75t-210.5 -25q-111 0 -215 25t-206 75q-94 48 -172 122t-137 165q-116 191 -116 387q0 103 29.5 199.5t86.5 190.5v-1q60 99 138.5 169t177.5 121q103 51 207.5 74.5t206.5 23.5z" />
    <glyph glyph-name="trademark" unicode="&#x2122;" horiz-adv-x="2218" 
d="M562 762v691h-294v169h766v-169h-295v-691h-177zM1101 762v860h241l219 -631q5 14 9 27.5t8 28.5q16 51 32 100t33 84q5 17 10 30q15 43 32.5 95.5t34 103t30 94t20.5 68.5h239v-860h-164v620q-8 -19 -14.5 -39.5t-14.5 -43.5q-6 -19 -12.5 -37.5t-13.5 -38.5
q-11 -32 -22.5 -65t-20.5 -62q-13 -40 -24 -72t-16 -46q-16 -38 -30.5 -81t-25.5 -82l-18 -53h-145l-220 629v-629h-167z" />
    <glyph glyph-name="acute" unicode="&#xb4;" horiz-adv-x="737" 
d="M226 1280l175 329h309l-284 -329h-200z" />
    <glyph glyph-name="plusminus" unicode="&#xb1;" horiz-adv-x="1219" 
d="M1184 143h-1091v215h1091v-215zM531 401v403h-438v213h438v401h214v-401h439v-213h-439v-403h-214z" />
    <glyph glyph-name="ordmasculine" unicode="&#xba;" horiz-adv-x="809" 
d="M426 1426q-42 0 -77 -11.5t-59.5 -37t-38.5 -67t-14 -101.5q0 -108 51.5 -162.5t137.5 -54.5q39 0 72.5 13t58 40t38.5 69t14 101q0 55 -14 95t-38.5 65.5t-58 38t-72.5 12.5zM426 1610q83 0 151.5 -28t117.5 -80t76 -126t27 -167q0 -92 -29 -165.5t-79.5 -125t-118 -79
t-145.5 -27.5q-83 0 -152.5 27t-119.5 78t-78 124.5t-28 165.5q0 94 27.5 169t77 127t119.5 79.5t154 27.5z" />
    <glyph glyph-name="logicalnot" unicode="&#xac;" horiz-adv-x="1296" 
d="M1227 386h-222v436h-871v214h1093v-650z" />
    <glyph glyph-name="guillemotleft" unicode="&#xab;" horiz-adv-x="999" 
d="M347 542q28 -44 61 -96.5t67 -106t66.5 -104.5t58.5 -92h-188l-307 399l308 399h186zM691 542q28 -44 61.5 -96.5t67.5 -106t66.5 -104.5t58.5 -92h-191l-303 398l305 400h188z" />
    <glyph glyph-name="guillemotright" unicode="&#xbb;" horiz-adv-x="999" 
d="M693 540q-27 44 -60.5 97.5t-67.5 107.5t-66 104.5t-56 89.5h185l302 -399l-302 -399h-186zM349 540q-28 44 -61.5 97t-67.5 107t-66 105t-57 90h189l303 -401l-303 -397h-189z" />
    <glyph glyph-name="ellipsis" unicode="&#x2026;" horiz-adv-x="1855" 
d="M331 143v252h255v-252h-255zM1328 143v252h256v-252h-256zM827 143v252h258v-252h-258z" />
    <glyph glyph-name="endash" unicode="&#x2013;" horiz-adv-x="1235" 
d="M-29 464v194h1302v-194h-1302z" />
    <glyph glyph-name="emdash" unicode="&#x2014;" horiz-adv-x="2218" 
d="M8 468v193h2271v-193h-2271z" />
    <glyph glyph-name="quotedblleft" unicode="&#x201c;" horiz-adv-x="913" 
d="M792 1601q-41 -46 -69.5 -84.5t-46 -70.5t-25 -59.5t-7.5 -51.5v-5q24 -2 46 -10.5t38 -23.5t25.5 -36t9.5 -48q0 -36 -12 -61.5t-31.5 -42t-43.5 -24.5t-47 -8q-66 0 -106 42.5t-40 140.5q0 52 15.5 107.5t44 111t70 109t92.5 101.5zM432 1601q-41 -46 -69.5 -84.5
t-46 -70.5t-25 -59.5t-7.5 -51.5v-5q24 -2 46 -10.5t38 -23.5t25.5 -36t9.5 -48q0 -36 -12 -61.5t-31.5 -42t-43.5 -24.5t-47 -8q-66 0 -106 42.5t-40 140.5q0 52 15.5 107.5t44 111t70 109t92.5 101.5z" />
    <glyph glyph-name="quotedblright" unicode="&#x201d;" horiz-adv-x="916" 
d="M109 1147q40 46 68.5 84.5t45.5 70.5t25 59t8 51v6q-49 3 -83.5 33.5t-34.5 84.5q0 36 12 61.5t31.5 42t43.5 24.5t47 8q66 0 106 -42.5t40 -140.5q0 -53 -15.5 -108t-44 -110.5t-70 -109t-92.5 -101.5zM479 1147q40 46 68.5 84.5t45.5 70.5t25 59t8 51v6
q-49 3 -83.5 33.5t-34.5 84.5q0 36 12 61.5t31.5 42t43.5 24.5t47 8q66 0 106 -42.5t40 -140.5q0 -53 -15.5 -108t-44 -110.5t-70 -109t-92.5 -101.5z" />
    <glyph glyph-name="quoteleft" unicode="&#x2018;" horiz-adv-x="501" 
d="M422 1538q-39 -43 -65.5 -78t-44 -64t-25.5 -53t-9 -45q45 -6 77.5 -37.5t32.5 -83.5q0 -37 -12.5 -63.5t-32 -44t-44.5 -25.5t-49 -8q-68 0 -109 42.5t-41 141.5q0 49 15.5 102.5t44 107.5t70 106.5t92.5 100.5z" />
    <glyph glyph-name="quoteright" unicode="&#x2019;" horiz-adv-x="501" 
d="M80 1115q38 43 64.5 78.5t43.5 64.5t25 53t9 45q-45 6 -77 37.5t-32 84.5q0 36 12.5 62.5t32 44t44.5 25.5t49 8q34 0 61.5 -10t47 -32t30.5 -57t11 -85t-15.5 -103t-44 -107t-70 -106.5t-92.5 -100.5z" />
    <glyph glyph-name="currency" unicode="&#xa4;" horiz-adv-x="969" 
d="M301 739q0 -35 16 -66.5t43.5 -55t64 -37t77.5 -13.5q40 0 76.5 13.5t64 37t43.5 55t16 66.5q0 36 -16 67.5t-43 54.5t-63.5 36.5t-77.5 13.5t-77.5 -13.5t-64 -36.5t-43.5 -54.5t-16 -67.5zM40 1026l138 137l122 -117q55 28 106 41.5t96 13.5q46 0 97.5 -13.5
t104.5 -41.5q15 14 31.5 30t33 31.5t32 30t26.5 24.5l135 -134l-120 -110q23 -43 35 -88.5t12 -90.5q0 -42 -12.5 -89t-35.5 -91q15 -14 32 -29.5t33.5 -30.5t31.5 -28.5t26 -23.5l-139 -127l-121 112q-54 -27 -103.5 -41t-98.5 -14q-45 0 -96 14.5t-106 41.5
q-14 -14 -31 -29.5t-33.5 -30.5t-31.5 -28.5t-25 -23.5l-139 126l128 113q-23 44 -36.5 89.5t-13.5 89.5q0 43 12 88.5t37 90.5z" />
    <glyph glyph-name="guilsinglleft" unicode="&#x2039;" horiz-adv-x="737" 
d="M350 618q34 -53 75 -115.5t82.5 -126.5t81.5 -124.5t72 -110.5h-209l-362 477l361 483h212z" />
    <glyph glyph-name="guilsinglright" unicode="&#x203a;" horiz-adv-x="737" 
d="M387 624q-35 53 -76 115.5t-83 126.5t-82 124.5t-72 110.5h209l351 -473l-351 -487h-209z" />
    <glyph glyph-name="quotesinglbase" unicode="&#x201a;" horiz-adv-x="501" 
d="M80 -102q76 86 108 142.5t34 97.5q-45 7 -77 38t-32 84q0 37 12.5 63.5t32 43.5t44.5 25t49 8q34 0 61.5 -10t47 -32t30.5 -57t11 -85q0 -49 -15.5 -102t-44 -107t-70 -107t-92.5 -101z" />
    <glyph glyph-name="quotedblbase" unicode="&#x201e;" horiz-adv-x="924" 
d="M109 -164q40 46 68.5 84.5t45.5 70.5t25 59t8 51v6q-49 3 -83.5 33.5t-34.5 84.5q0 36 12 61.5t31.5 42t43.5 24.5t47 8q66 0 106 -42.5t40 -140.5q0 -53 -15.5 -108t-44 -110.5t-70 -109t-92.5 -101.5zM469 -164q40 46 68.5 84.5t45.5 70.5t25 59t8 51v6
q-49 3 -83.5 33.5t-34.5 84.5q0 36 12 61.5t31.5 42t43.5 24.5t47 8q66 0 106 -42.5t40 -140.5q0 -53 -15.5 -108t-44 -110.5t-70 -109t-92.5 -101.5z" />
    <glyph glyph-name="tilde" unicode="&#x2dc;" horiz-adv-x="737" 
d="M-11 1330q21 83 43.5 137.5t51.5 81.5q32 29 75 43.5t85 14.5q13 0 31 -4t38 -10.5t40.5 -14t39.5 -14.5q8 -4 18 -7t19 -7q35 -15 58.5 -22t46.5 -7q26 0 43 17.5t31 70.5h166q-21 -138 -84 -207.5t-150 -69.5q-41 0 -85.5 15t-102.5 42h1q-69 34 -102 34
q-29 0 -49.5 -21t-31.5 -72h-182z" />
    <glyph glyph-name="ring" horiz-adv-x="770" 
d="M408 1458q-14 0 -32 -8.5t-33.5 -20.5t-26.5 -25t-12 -23q1 -11 11.5 -27t26 -30t33.5 -23.5t33 -8.5q13 -1 30.5 8t32.5 22.5t25.5 28t10.5 25.5q0 10 -10.5 24.5t-25.5 27t-32.5 21.5t-30.5 9zM163 1379q0 45 18.5 87t51.5 74t77.5 51t95.5 19q48 0 92 -18.5
t77.5 -50.5t53 -74.5t19.5 -90.5q0 -49 -19.5 -92.5t-52.5 -75.5t-76.5 -51t-91.5 -19q-55 0 -100 19t-77.5 52t-50 76.5t-17.5 93.5z" />
    <glyph glyph-name="brokenbar" unicode="&#xa6;" horiz-adv-x="451" 
d="M324 523v-884h-171v884h171zM324 1605v-888h-171v888h171z" />
    <glyph glyph-name="macron" unicode="&#xaf;" horiz-adv-x="1225" 
d="M-27 1432v182h1338v-182h-1338z" />
    <glyph glyph-name="periodcentered" unicode="&#xb7;" horiz-adv-x="692" 
d="M231 461v253h256v-253h-256z" />
    <glyph glyph-name="uni10D0" unicode="&#x10d0;" horiz-adv-x="1044" 
d="M954 555q0 -462 -432 -462q-107 0 -187.5 35.5t-135 97t-82 142.5t-27.5 173v64q0 32 10 68.5t28 74.5t42 78t52 79l176 -88q-38 -71 -57 -128t-19 -84v-69q0 -56 10.5 -99t34 -72t61.5 -44t94 -15q52 0 89.5 13.5t62 44t36.5 79t12 118.5v105q0 60 -17 110.5t-44 94.5
t-62 83.5t-71 77.5q-41 43 -80 87.5t-69.5 94.5t-49 109t-18.5 131v162h222v-162q0 -43 14.5 -81.5t39 -74.5t56 -71t64.5 -71v1q45 -48 89 -98.5t79 -109.5t57 -128.5t22 -154.5v-111z" />
    <glyph glyph-name="uni10D1" unicode="&#x10d1;" horiz-adv-x="1044" 
d="M322 541q0 -46 11.5 -88.5t36 -75t62 -52t90.5 -19.5q55 0 93 21t62 54t34.5 72.5t10.5 76.5v189q0 40 -12.5 82.5t-37 77t-62 56.5t-88.5 22q-54 0 -92 -19.5t-62 -53t-35 -78t-11 -93.5v-172zM442 1616q0 -35 9.5 -59.5t24.5 -41.5t34 -28.5t38 -20.5
q28 -14 55.5 -29.5t49.5 -36t35.5 -47.5t13.5 -64q0 -47 -6.5 -79.5t-21.5 -66.5q69 -28 121.5 -75.5t87 -104.5t52 -119t17.5 -118l2 -207q0 -43 -12.5 -91.5t-37 -96t-61 -90.5t-84.5 -76t-107.5 -52.5t-129.5 -19.5q-107 0 -187.5 39t-135 100.5t-82 138t-27.5 150.5v203
q0 68 19 137.5t61.5 128.5t110 103.5t164.5 63.5q9 23 14 40t8 31t3.5 27t0.5 28q-4 8 -23.5 19t-46.5 25q-33 17 -66.5 37.5t-61.5 52.5t-45.5 80t-17.5 119h232z" />
    <glyph glyph-name="uni10D2" unicode="&#x10d2;" horiz-adv-x="1167" 
d="M841 683q0 39 -13.5 82.5t-40.5 80t-68 60.5t-95 24h-62q-57 0 -101.5 -19t-75.5 -55t-47.5 -86.5t-16.5 -113.5v-89q0 -46 16 -93t48.5 -84.5t82 -61.5t116.5 -24q66 0 114.5 19.5t80 54.5t47 83t15.5 106v116zM1074 551q-1 -75 -30 -155.5t-89.5 -148t-154 -111
t-222.5 -43.5q-78 0 -144.5 21.5t-121 57t-96 82.5t-69.5 98t-42.5 103t-14.5 97v109q0 88 29.5 170.5t90 148.5t152.5 110t218 53q19 38 36.5 72t37.5 74q-3 17 -13 37t-26 36.5t-36.5 27.5t-45.5 11q-69 0 -101.5 -21t-32.5 -55v-91h-218v91q0 64 30 117.5t79 92t112.5 60
t130.5 21.5q85 0 149 -24.5t106.5 -69.5t63.5 -109t21 -144l-75 -160q50 -24 100 -63t90 -93t64.5 -122.5t23.5 -150.5z" />
    <glyph glyph-name="uni10D3" unicode="&#x10d3;" horiz-adv-x="1526" 
d="M1202 1122q0 49 -3.5 99t-20 90t-50.5 65t-95 25q-55 0 -89 -18t-52.5 -53.5t-25 -87.5t-6.5 -120v-154q0 -146 41 -214t132 -68q60 0 93.5 27.5t50.5 69.5t21 91.5t4 93.5v154zM1148 93h-218q-144 0 -262.5 34t-212 94.5t-162 142.5t-114 178t-67.5 202t-22 214v113
q0 52 4.5 112.5t18 121t39.5 116.5t69 99.5t105.5 69.5t149.5 26q50 0 89.5 -7.5t71.5 -25t57.5 -46.5t48.5 -71q25 43 55 71.5t66 46t78 25t91 7.5q79 0 139.5 -20.5t105 -56t75 -83.5t49 -103t26.5 -114t8 -117v-160q0 -87 -23 -174.5t-71.5 -157t-125 -113t-183.5 -43.5
q-101 0 -177 37.5t-126.5 104.5t-76 158t-25.5 199v145q0 58 -8 109.5t-26 90t-47 61t-71 22.5q-37 0 -63 -16.5t-43 -43.5t-26.5 -62t-14.5 -71.5t-6 -72.5t-1 -64v-107q0 -139 39.5 -256.5t117 -202.5t191 -132.5t260.5 -47.5h218v-232z" />
    <glyph glyph-name="uni10D4" unicode="&#x10d4;" horiz-adv-x="1083" 
d="M953 463q0 -98 -35.5 -168t-95 -115t-137.5 -66t-163 -21q-94 0 -173.5 29.5t-137 82t-89.5 123.5t-32 155q0 61 5.5 105.5t19 81.5t36.5 69.5t58 69.5l173 -69q-21 -27 -33 -53.5t-18.5 -56.5t-8 -66.5t-1.5 -82.5q0 -85 49 -130t152 -45q92 0 146 43.5t54 118.5v789
q0 64 -44.5 104t-121.5 40q-80 0 -129.5 -39t-49.5 -107q0 -25 2 -51t17 -63l-181 -65q-17 24 -28.5 42.5t-19 37.5t-11 42t-3.5 57q0 81 28 147.5t79 114t123 73.5t161 26q87 0 161.5 -23t129.5 -68.5t86.5 -112.5t31.5 -155v-794z" />
    <glyph glyph-name="uni10D5" unicode="&#x10d5;" horiz-adv-x="1063" 
d="M953 472q0 -75 -27.5 -143.5t-82 -121t-135 -83.5t-186.5 -31q-107 0 -188 33.5t-135 86.5t-81.5 119.5t-27.5 132.5v73q0 30 6.5 64t21 68.5t37.5 67.5t57 63l190 -87q-50 -53 -65.5 -98t-15.5 -86v-55q0 -34 12.5 -64.5t37 -54t62.5 -37t89 -13.5q103 0 151.5 45
t48.5 121v151q0 25 -5 55.5t-16 57.5t-29.5 45t-45.5 18h-133v214h133q29 0 46 22t26 53.5t11.5 65t2.5 57.5v42q0 27 -10.5 53.5t-32 47.5t-55.5 34t-81 13q-41 0 -73 -12.5t-54.5 -31t-34.5 -40.5t-12 -41v-29q0 -21 1 -36t4 -28.5t10 -27.5t19 -33l-169 -92
q-27 34 -45.5 59.5t-30.5 48.5t-17 47t-5 55v45q0 58 30 117t84 106.5t128.5 77.5t164.5 30q103 0 180.5 -30.5t128.5 -80t76.5 -113.5t25.5 -131v-61q0 -24 -1 -58.5t-12 -73.5t-36 -80.5t-72 -79.5q49 -35 75.5 -71.5t38.5 -73.5t14 -72.5t2 -67.5v-151z" />
    <glyph glyph-name="uni10D6" unicode="&#x10d6;" horiz-adv-x="1184" 
d="M599 1312q0 22 -13.5 39t-34.5 28t-46.5 16.5t-49.5 5.5q-66 0 -104.5 -22t-38.5 -69v-70q0 -46 36 -76.5t111 -30.5q23 0 47.5 6.5t45 19.5t34 33t13.5 48v72zM425 557q0 -64 17 -111t47 -78t70 -46.5t85 -15.5q46 0 86 16.5t68.5 49.5t45 81.5t16.5 113.5v85
q0 64 -16.5 111.5t-45 78t-68.5 45.5t-86 15q-45 0 -85 -12.5t-70 -40.5t-47 -72.5t-17 -108.5v-111zM820 1269q0 -38 -17 -82t-46 -84q84 -17 147.5 -57t105.5 -96t63 -123.5t21 -138.5v-152q0 -111 -34.5 -194t-94.5 -138.5t-142.5 -83t-178.5 -27.5q-95 0 -176.5 27.5
t-142.5 83t-95.5 138.5t-34.5 194v147q0 99 28 165.5t75 114.5q-107 35 -157.5 112t-50.5 197v44q0 71 27 127t75.5 94.5t115 58.5t146.5 20q99 0 169 -21.5t113.5 -61t63.5 -95t20 -122.5v-47z" />
    <glyph glyph-name="uni10D7" unicode="&#x10d7;" horiz-adv-x="1641" 
d="M732 1202q0 36 -10 71.5t-32.5 64t-59 46t-89.5 17.5q-60 0 -97.5 -33.5t-58 -87t-27.5 -120t-7 -133.5v-330q0 -98 8.5 -171t30 -122t58 -73.5t93.5 -24.5q53 0 89.5 23.5t59 68.5t32.5 109t10 145v550zM1521 748q0 -75 -8.5 -152t-28 -150t-52.5 -137t-82 -112
t-116.5 -76t-155.5 -28v213q63 0 103.5 37t64.5 97t33.5 137.5t9.5 158.5v268q0 47 -1.5 94.5t-6.5 92t-15.5 82.5t-28.5 66.5t-45 45t-65 16.5q-60 0 -93 -17.5t-48.5 -46t-18.5 -64t-3 -71.5v-544q0 -69 -9.5 -137t-30 -131t-53.5 -117t-80 -94t-109 -63t-141 -23
q-85 0 -149 23.5t-110.5 64.5t-77.5 97t-50 121.5t-26.5 138t-7.5 145.5v380q0 66 7.5 132t26 126t49.5 112.5t77.5 92t110.5 62.5t149 26q36 0 77.5 -5.5t83 -20.5t80 -41t68.5 -68q26 46 55 73.5t63 41.5t73.5 18t86.5 4q88 0 151 -24.5t107 -67t70.5 -99t41 -121
t19.5 -133.5t5 -135v-288z" />
    <glyph glyph-name="uni10D8" unicode="&#x10d8;" horiz-adv-x="1105" 
d="M983 705q-1 -99 -15 -200t-51.5 -187t-105 -149t-176.5 -88l-22 225q69 0 104 102.5t35 290.5v345q0 84 -8.5 150.5t-30.5 112.5t-59.5 70t-94.5 24q-64 0 -104.5 -25t-63.5 -71.5t-31.5 -114t-8.5 -152.5v-339q0 -92 4.5 -165t16 -123.5t31.5 -77.5t50 -27l-2 -223
q-76 14 -130.5 48t-91 81.5t-58.5 106.5t-33 122.5t-14.5 129.5t-3.5 128v336q0 67 7 136t25.5 133.5t49.5 121.5t79 99t115 66.5t156 24.5q136 0 221 -46.5t132 -125.5t63.5 -182.5t16.5 -217.5z" />
    <glyph glyph-name="uni10D9" unicode="&#x10d9;" horiz-adv-x="1033" 
d="M933 517q0 -87 -29 -164.5t-84.5 -135t-135.5 -91t-183 -33.5q-98 0 -178 33.5t-136 86.5t-86.5 118.5t-30.5 128.5v81q0 39 10.5 75t28 67.5t41 58.5t49.5 48l158 -123q-17 -13 -27.5 -31.5t-17 -38t-9 -38.5t-2.5 -34v-44q0 -32 12.5 -63t37 -56t62 -40.5t88.5 -15.5
q56 0 94.5 16t62 44.5t34 67t10.5 83.5v93q0 47 -11.5 91t-32 78t-49.5 54.5t-63 20.5h-173v214h164q26 0 49 8t40.5 24t28 39.5t10.5 54.5v67q0 26 -15.5 51t-40 45t-56 32t-63.5 12v215q42 0 88.5 -12t92 -34.5t86.5 -54t72 -71t49.5 -86t18.5 -97.5v-40q0 -94 -32 -155
t-90 -101q50 -28 81 -64.5t48 -81t23 -97t6 -112.5v-93z" />
    <glyph glyph-name="uni10DA" unicode="&#x10da;" horiz-adv-x="1992" 
d="M1902 1033q0 -42 -12 -94t-34 -107.5t-53.5 -112t-69.5 -107t-82.5 -92.5t-92.5 -69l-155 141q61 45 110 104t83.5 121t53 121t18.5 104v116q0 57 -11.5 101t-32 73.5t-48 44.5t-58.5 15q-50 0 -81.5 -16t-49.5 -44.5t-24.5 -66.5t-6.5 -82v-279h-222v279q0 43 -5.5 82.5
t-20.5 69.5t-42 48t-71 18q-40 0 -66.5 -18t-42.5 -48t-23 -68t-7 -78v-285h-224v285q0 39 -3.5 76t-18.5 65t-46.5 45t-87.5 17q-41 0 -70 -21t-48 -57t-27.5 -84.5t-8.5 -103.5l2 -128q-1 -98 33 -185t96.5 -159.5t149.5 -130t192.5 -97.5t226 -61t249.5 -21h184v-232
h-180q-191 0 -352.5 35t-292.5 96.5t-230.5 145.5t-167.5 182.5t-103.5 207t-37.5 218.5l-1 134q0 101 22.5 188t69.5 151t120 100.5t174 36.5q44 0 82 -9.5t71 -30t62.5 -51t57.5 -72.5q44 82 103 127t143 45q81 0 142.5 -44.5t109.5 -125.5q58 80 127.5 120.5t141.5 40.5
q81 0 151.5 -29t122.5 -85t82 -138t30 -188v-134z" />
    <glyph glyph-name="uni10DB" unicode="&#x10db;" horiz-adv-x="1075" 
d="M722 741q0 63 -15 108t-42 73t-63 41t-78 13q-50 0 -88 -21.5t-63.5 -55.5t-38.5 -76.5t-13 -85.5v-196q0 -54 14.5 -98t42 -74.5t66.5 -47.5t87 -17q93 0 142 61t49 176v200zM953 519q0 -99 -31 -177.5t-87 -134t-134.5 -85t-172.5 -29.5q-107 0 -188.5 34t-137 94
t-84 142t-28.5 178v196q0 79 28.5 159t84 145t137 106t188.5 41q48 0 100.5 -12.5t102.5 -50.5v162q0 27 -17 48t-44.5 36t-62.5 22.5t-70 7.5q-86 0 -129 -23t-43 -55v-77h-233v77q0 58 34.5 111.5t91.5 93.5t130 64t151 24q81 0 156.5 -23.5t133 -67t92 -104t34.5 -134.5z
" />
    <glyph glyph-name="uni10DC" unicode="&#x10dc;" horiz-adv-x="1073" 
d="M752 749q0 49 -12.5 90.5t-37.5 72t-62.5 47.5t-86.5 17q-27 0 -61.5 -4t-66 -25.5t-53 -68t-21.5 -130.5v-221q0 -45 12 -85.5t36.5 -70.5t62.5 -47.5t89 -17.5q101 0 151 59.5t50 172.5v211zM983 525q0 -99 -28 -179t-83 -136t-135 -86.5t-184 -30.5q-95 0 -174 30
t-137 86.5t-90 136.5t-32 181v771q0 78 21.5 134.5t59 93.5t87.5 55t107 18q47 0 88.5 -8t81.5 -17h-1q35 -8 67 -14t59 -6q49 0 110 23t156 66v-203q-41 -25 -77 -42.5t-69.5 -28.5t-65.5 -16t-65 -5q-40 0 -74.5 6t-67.5 14q-29 6 -58 11.5t-58 5.5q-44 1 -63.5 -25.5
t-19.5 -66.5v-178q54 43 109 58t104 15q104 0 184.5 -36.5t135.5 -96.5t83.5 -138t28.5 -162v-230z" />
    <glyph glyph-name="uni10DD" unicode="&#x10dd;" horiz-adv-x="1641" 
d="M1296 1011q0 84 -4.5 155.5t-22 123.5t-53.5 81.5t-99 29.5q-181 0 -181 -224v-593h-231v593q0 118 -44.5 171t-138.5 53q-58 0 -93.5 -29.5t-54.5 -82.5t-25 -126.5t-6 -160.5v-243q0 -82 13.5 -163t43.5 -145.5t77.5 -104.5t116.5 -40v-213q-97 0 -170 28t-127 76.5
t-90 113.5t-57.5 138.5t-30.5 152t-9 153.5v247q0 76 5.5 151t21 143t44 126.5t74.5 101.5t112 67.5t157 24.5q52 0 95 -14.5t78.5 -39t64 -56.5t51.5 -67q23 33 53 65t67.5 56.5t83.5 40t100 15.5q87 0 151.5 -24t110.5 -66t75.5 -99.5t46.5 -124t23.5 -139.5t6.5 -146
l-1 -262q0 -72 -10 -148.5t-33 -150t-60 -139.5t-90.5 -116t-124.5 -79t-163 -29v213q63 0 109 39.5t77 104t46 147t15 167.5v247z" />
    <glyph glyph-name="uni10DE" unicode="&#x10de;" horiz-adv-x="1043" 
d="M953 557q0 -107 -31 -193t-88 -146t-136.5 -92.5t-176.5 -32.5q-91 0 -170 33t-137 88t-91 125.5t-33 145.5v80q0 69 19 122t63 100l188 -85q-23 -35 -31 -73.5t-8 -83.5v-30q0 -41 15.5 -79t42.5 -67t63.5 -46t78.5 -17q107 0 154 67.5t47 196.5v107q0 32 -11 64
t-30.5 57t-45 40.5t-55.5 15.5h-132v214h132q52 0 74 34.5t22 84.5v31q0 9 -12.5 17t-33 15.5t-47.5 15t-56 15.5q-58 15 -117.5 34.5t-108 55.5t-79 94.5t-30.5 150.5h232q0 -37 16 -61t42 -40.5t58.5 -27t66.5 -19.5q53 -14 106.5 -30.5t96.5 -43.5t70 -67t27 -100v-42
q0 -25 -6 -52.5t-19.5 -57t-36.5 -58.5t-57 -57q44 -33 75 -71t51 -75.5t29.5 -73t9.5 -63.5v-120z" />
    <glyph glyph-name="uni10DF" unicode="&#x10df;" horiz-adv-x="1072" 
d="M952 483q0 -98 -31.5 -171t-88 -121.5t-134 -73t-169.5 -24.5q-100 0 -181 24.5t-138.5 72.5t-88.5 119.5t-31 165.5v42q3 51 21.5 86t38.5 64l204 -15q-13 -17 -19.5 -37.5t-9.5 -39.5t-3 -34v-20v-49q0 -38 15.5 -68.5t43.5 -52.5t66 -33.5t82 -11.5q43 0 79 16
t61 42.5t39 60.5t14 71v874q-59 -7 -117 -13t-118 -12q26 -18 43.5 -41.5t28.5 -54t16 -68.5t5 -86q0 -29 -8.5 -62t-29.5 -65.5t-56.5 -63t-90 -53.5t-130 -37t-175.5 -14v215q60 0 108.5 1t82.5 8.5t53.5 25.5t22.5 51q-1 41 -24.5 73t-61 56t-85 42t-96.5 32v197l862 95
v-1113z" />
    <glyph glyph-name="uni10E1" unicode="&#x10e1;" horiz-adv-x="1073" 
d="M983 565q0 -102 -32 -188.5t-89.5 -149.5t-137 -98.5t-173.5 -35.5q-95 0 -174 29t-136 89t-89 151t-32 214v1040h231v-1040q0 -74 15 -125.5t41.5 -83.5t63 -46.5t80.5 -14.5q50 0 87.5 19.5t63 55.5t38 86t12.5 111v54q0 66 -22.5 125.5t-63.5 110.5q-21 27 -40.5 54
t-34.5 54.5t-24.5 56t-9.5 58.5q0 23 3.5 47t12 49.5t23.5 54.5t38 63l240 -67q-9 -11 -18.5 -22.5t-17.5 -21.5t-14.5 -17.5t-7.5 -10.5q-17 -23 -26 -39t-9 -36q0 -32 26.5 -69t61.5 -77h-1q52 -59 83.5 -129.5t31.5 -165.5v-85z" />
    <glyph glyph-name="uni10E3" unicode="&#x10e3;" horiz-adv-x="1179" 
d="M1059 541q0 -111 -27.5 -195t-80 -140.5t-129 -84.5t-173.5 -28q-105 0 -189 31t-142 87.5t-89 134.5t-31 171v88q0 75 30.5 131t86.5 104l179 -82q-35 -33 -49.5 -75.5t-14.5 -77.5v-88q0 -46 14.5 -85t42 -67t68.5 -43.5t94 -15.5q54 0 89 18.5t55 51t27.5 76.5t7.5 96
v815q0 17 -28.5 31t-76.5 14q-38 0 -59 -14t-21 -31v-343h-203v343q0 24 -16.5 35.5t-45.5 11.5q-10 0 -21 -11.5t-22 -24.5q-21 -24 -45.5 -44t-62.5 -20q-25 0 -49 9t-47 23.5t-43.5 33.5t-37.5 40v265q22 -22 50 -47.5t54 -47t47 -36t30 -14.5q-1 0 6 6t16 14
q24 20 51.5 37t64.5 17q61 0 105.5 -24.5t77.5 -72.5q35 48 83.5 72.5t96.5 24.5q58 0 116 -18t105 -50.5t76.5 -78t29.5 -100.5v-822z" />
    <glyph glyph-name="uni10E4" unicode="&#x10e4;" horiz-adv-x="1564" 
d="M684 1149q0 72 -11.5 120.5t-34.5 78t-57 41.5t-79 12t-78.5 -10.5t-56.5 -38.5t-34.5 -77t-11.5 -126v-86q0 -70 11 -114.5t33.5 -70.5t56.5 -36t80 -10q54 0 89 14t55.5 43t29 72t8.5 102v86zM1452 487q0 -99 -42 -173t-117 -123t-178 -73.5t-224 -24.5q-77 0 -150 6.5
t-138 23.5t-119.5 47t-94 77.5t-61 114.5t-20.5 158l229 -45q0 -46 15.5 -76t42 -49t62 -28t75 -12.5t80.5 -3.5h79q64 0 123.5 9t105 30t73 56t27.5 86v49q0 29 -5.5 63t-19 63t-36.5 48.5t-59 19.5h-85v213h85q37 0 63.5 17.5t43.5 45.5t25.5 63.5t8.5 71.5v48
q0 51 -5.5 90.5t-23.5 66.5t-52 41t-90 14q-42 0 -71.5 -18t-47.5 -50t-26 -76t-8 -95v-99q0 -96 -25 -178t-76 -142t-129.5 -94t-184.5 -34q-99 0 -176 31.5t-129.5 90t-79.5 141t-27 185.5v86q0 117 29.5 204.5t83.5 146t130 87.5t169 29q39 0 79.5 -7t79 -23t74 -43.5
t65.5 -67.5q28 44 61 71.5t68 43t70.5 21t70.5 5.5q105 0 181 -29t125.5 -83t73.5 -132t24 -176v-45q0 -39 -5.5 -82t-22 -84t-47.5 -79t-83 -68q47 -27 74 -61.5t41 -73t17.5 -79t3.5 -79.5v-58z" />
    <glyph glyph-name="uni10E5" unicode="&#x10e5;" horiz-adv-x="1073" 
d="M953 462q0 -89 -33 -157.5t-90.5 -115.5t-136.5 -71.5t-171 -24.5t-170.5 26.5t-137 76t-91.5 119.5t-33 157v36q0 41 23 82.5t67 79.5l184 -82q-43 -68 -43 -126q0 -74 47.5 -115t153.5 -41q44 0 81 9.5t63.5 27.5t41 45.5t14.5 63.5v427q0 30 -9.5 72.5t-35 81.5
t-72 66t-119.5 27q-38 0 -61 -9.5t-35 -23.5t-16 -30.5t-4 -31.5q0 -34 12 -61.5t35 -53.5l-155 -94q-32 18 -53.5 42t-35 52t-19.5 57t-6 57q0 66 22.5 122t66 97t106 64t143.5 23q77 0 137 -29t108 -76v181h-184v204h406v-1154z" />
    <glyph glyph-name="uni10E6" unicode="&#x10e6;" horiz-adv-x="1491" 
d="M1401 935q0 -88 -22 -158t-58.5 -126t-82.5 -98.5t-94 -75.5l-159 154q60 35 96 78t55.5 86.5t25.5 84.5t6 71v167q0 85 -7.5 140t-25 87t-46.5 44t-73 12q-49 0 -79.5 -12.5t-47.5 -43t-23 -82.5t-6 -130v-317h-231v317q0 81 -7.5 133t-25 82t-46.5 41.5t-72 11.5
q-41 0 -70.5 -18.5t-48.5 -59t-28 -104.5t-9 -156v-133q0 -126 40.5 -235t116.5 -190t183 -127t241 -46h200v-239h-200q-130 0 -241 32.5t-201 89.5t-159.5 136t-116.5 172t-71 196.5t-24 210.5v133q0 127 20.5 229.5t66 174.5t119 110.5t179.5 38.5q49 0 88.5 -6
t71.5 -22.5t59 -45t50 -73.5q24 46 52 74.5t60.5 44.5t71.5 22t86 6q109 0 183 -28t119.5 -88t65 -153.5t19.5 -224.5v-187z" />
    <glyph glyph-name="uni10E7" unicode="&#x10e7;" horiz-adv-x="1073" 
d="M953 508q0 -203 -103.5 -309t-327.5 -106q-83 0 -160.5 21t-138 64t-97 107t-36.5 151q0 43 8 74.5t21 57t29.5 47t34.5 43.5l181 -79q-24 -22 -33.5 -57t-9.5 -86q0 -29 18 -53t46.5 -41t64.5 -26.5t72 -9.5q60 0 98.5 14.5t61 42.5t31.5 69t9 93v284q-20 -15 -41 -25
t-44.5 -16t-50.5 -8t-58 -2q-95 0 -170.5 33.5t-128.5 90t-81.5 131.5t-28.5 158v47q1 64 20.5 126t53.5 119t81 107t103 91l157 -166q-27 -14 -60.5 -45t-63 -70t-49.5 -80.5t-20 -74.5v-76q0 -33 15.5 -65t41 -57t59.5 -40.5t71 -15.5q60 0 97.5 23t58.5 52t28.5 56
t7.5 35l2 479h231v-1108z" />
    <glyph glyph-name="uni10E8" unicode="&#x10e8;" horiz-adv-x="1187" 
d="M836 690q0 127 -53.5 181.5t-162.5 54.5q-47 1 -87 -20t-69.5 -57.5t-46.5 -84.5t-17 -101v-102q0 -50 16 -96t44.5 -81.5t69 -56.5t89.5 -21q44 0 83.5 18.5t69 50t47 74.5t17.5 92v149zM1067 541q0 -101 -37 -183.5t-99 -141t-143 -91t-169 -32.5q-92 0 -174 40.5
t-143.5 106t-97.5 148t-36 167.5v128q0 93 32 176.5t91.5 146t142.5 99.5t185 37q24 0 52 -3t58 -10t59.5 -19t56.5 -31v159q0 49 -2.5 82.5t-13 53.5t-32 29t-60.5 9q-48 0 -79 -27.5t-31 -74.5v-70h-168v70q0 27 -13 46t-32.5 31.5t-43 18.5t-44.5 6q-17 0 -28.5 -6
t-18.5 -14.5t-9.5 -18.5t-2.5 -19v-171h-207v171q0 54 19.5 101.5t54 83t80.5 55.5t100 20q42 0 76 -9.5t61 -27t49.5 -41t42.5 -50.5q20 24 42.5 47t48 41t55 29t63.5 11q88 0 148 -22t97 -67.5t53.5 -115.5t16.5 -165v-703z" />
    <glyph glyph-name="uni10E9" unicode="&#x10e9;" horiz-adv-x="1073" 
d="M607 1223q5 18 7.5 31t4 25t1.5 25v31q0 22 -16.5 38.5t-40.5 27t-51.5 15.5t-49.5 5q-24 0 -46 -10t-38.5 -26.5t-26 -36.5t-9.5 -41v-262q48 36 101.5 52.5t107.5 16.5q126 0 209.5 -39t133 -103t69.5 -144.5t20 -164.5v-118q0 -80 -21 -148.5t-53 -127t-70 -107
t-71 -88.5h-249q2 3 14 19l25.5 34t25 33.5t13.5 18.5v-1q28 40 56 81.5t50 87t35.5 96.5t13.5 109v111q0 31 -6.5 72t-28 78t-61 63t-105.5 26q-51 0 -90 -21t-65.5 -51.5t-40 -66t-13.5 -64.5v-606h-222v1229q0 66 28.5 120.5t76 93t110 59.5t131.5 21q37 0 79 -5.5
t83.5 -18t79.5 -33.5t67.5 -52.5t47 -74t17.5 -97.5q0 -23 -3.5 -41t-10 -35.5t-16 -36t-21.5 -41.5z" />
    <glyph glyph-name="uni10EB" unicode="&#x10eb;" horiz-adv-x="1074" 
d="M722 737q0 50 -14 93.5t-39.5 76t-63 51t-83.5 18.5q-96 0 -148 -59.5t-52 -179.5v-207q0 -62 13.5 -105t39.5 -69.5t63 -38t84 -11.5q48 0 85 21.5t62.5 54.5t39 74t13.5 80v201zM954 530q0 -95 -30.5 -175t-86.5 -138.5t-136 -91t-179 -32.5q-111 0 -192.5 34.5
t-134.5 95.5t-79 143.5t-26 178.5v203q0 96 26 177t79 139.5t134.5 91t192.5 32.5q42 0 93 -12.5t107 -51.5v492h232v-1086z" />
    <glyph glyph-name="uni10ED" unicode="&#x10ed;" horiz-adv-x="1044" 
d="M539 1071q0 6 -17.5 17.5t-40.5 23t-46.5 19.5t-36.5 8q-21 0 -38 -9.5t-30 -22.5t-20 -27.5t-7 -24.5q0 -13 7.5 -27.5t20 -26.5t30 -19.5t37.5 -7.5q18 0 42.5 8t46 20t37 25t15.5 22v22zM954 777q-26 24 -57 42t-63 31.5t-62.5 23.5t-55.5 18q6 -8 17.5 -16.5
t24.5 -17t24.5 -17t19.5 -17.5q28 -32 55 -64.5t48.5 -67.5t35 -72.5t13.5 -79.5v-40q0 -95 -29 -170t-84.5 -128t-135.5 -81t-183 -28q-100 0 -180 33t-136 90.5t-86 135.5t-30 169q0 34 4 59t12.5 44.5t21 35t29.5 30.5l202 -58q-11 -18 -18 -32t-11 -27.5t-6 -27
t-2 -30.5q0 -42 12.5 -79.5t37.5 -66.5t62.5 -46t87.5 -17q52 0 89.5 14t62 39.5t36.5 61.5t12 79v54q0 37 -23.5 70.5t-52.5 68.5q-17 19 -33.5 38t-31.5 40t-27 44.5t-19 52.5q-41 -28 -78.5 -47t-58.5 -19q-54 0 -103 11.5t-86 40.5t-59 77.5t-22 123.5q0 67 22 114
t59 76.5t86 43t103 13.5q38 0 67.5 -13t54.5 -34q1 21 1.5 40t0.5 40v77h-163v204h372v-287q0 -11 -5 -23t-12 -24.5t-13 -26.5t-7 -27q26 16 57.5 34t65 40.5t68.5 50t69 61.5v-248q-19 -13 -44 -26.5t-52 -26t-54.5 -25t-51.5 -24.5q20 -8 46 -17t53.5 -19.5t54 -22.5
t48.5 -25v-203z" />
    <glyph glyph-name="uni10EE" unicode="&#x10ee;" horiz-adv-x="1073" 
d="M351 530q0 -105 53 -164.5t147 -59.5t147.5 59.5t53.5 164.5v196q0 122 -52 186t-149 64q-46 0 -83 -13.5t-63 -43t-40 -75.5t-14 -112v-202zM120 1616h231v-496q57 42 107.5 55t92.5 13q111 0 192.5 -31.5t134.5 -89t79 -137.5t26 -177v-253q0 -73 -26 -146t-79 -131
t-134.5 -94t-192.5 -36q-98 0 -178 36t-136 94t-86.5 131t-30.5 146v1116z" />
    <glyph glyph-name="uni10EF" unicode="&#x10ef;" horiz-adv-x="1044" 
d="M90 1403l278 2v211h222v-213h326v-214h-297q12 -32 27.5 -58.5t34.5 -49t40 -43t42 -41.5q36 -35 70.5 -71.5t61.5 -81.5t43 -101t16 -131v-100q0 -86 -28 -162t-82 -133t-134.5 -90.5t-185.5 -33.5q-72 0 -131.5 19t-108 51t-85 74t-60.5 87.5t-36.5 92.5t-12.5 88v116
q0 42 11.5 78t31 67t43.5 57.5t50 48.5l168 -72q-18 -18 -31.5 -41.5t-22.5 -48t-13.5 -48t-4.5 -41.5v-109q0 -33 12.5 -69t38 -66.5t63.5 -50.5t88 -20q55 0 92.5 15t60 42t32.5 65t11 84q0 25 1 50t1 50q0 46 -12.5 84t-32.5 71t-46 63t-54 60t-56 61t-53 67t-46 78
t-34 93h-298v214z" />
    <glyph glyph-name="uni10F0" unicode="&#x10f0;" horiz-adv-x="1044" 
d="M954 472q0 -107 -33 -179.5t-91.5 -116.5t-137.5 -63.5t-170 -19.5q-107 0 -187.5 31t-135 96.5t-82 167.5t-27.5 243h232q0 -90 10.5 -152t34 -100.5t61.5 -55.5t94 -17q96 0 148 35t52 108q0 38 -5 74t-16.5 63.5t-30 44.5t-45.5 17h-189v166h189q23 0 36.5 10t21 26
t9.5 35.5t2 38.5q0 13 -4 29t-14.5 29t-29.5 22t-48 9h-191v174h191q22 0 35.5 14t21 32.5t10 37t2.5 27.5q0 38 -32.5 59t-84 30.5t-115 11.5t-125.5 2h-90v211h96q59 0 125 -4t130.5 -15.5t123.5 -32t104 -55t72 -83.5t27 -117q0 -24 -10 -49.5t-25.5 -50.5t-35.5 -48.5
t-40 -44.5q24 -15 48.5 -34.5t45 -43t33.5 -51t13 -59.5t-11 -60t-28.5 -52t-39.5 -44.5t-43 -37.5q32 -24 59 -54.5t47 -64.5t31.5 -69.5t11.5 -69.5z" />
    <glyph glyph-name="uni10FB" unicode="&#x10fb;" horiz-adv-x="773" 
d="M473 676h249v-248h-249v248zM51 1019h249v-249h-249v249zM51 342h249v-251h-249v251z" />
    <glyph glyph-name="Euro" unicode="&#x20ac;" horiz-adv-x="1275" 
d="M-22 986q0 1 0.5 1.5t0.5 1.5v1zM1073 792q7 0 20 4t27 9q12 5 22 7.5t16 2.5q19 0 26 -4.5t0.5 -15t-27.5 -28.5t-58 -44q0 -3 -4 -15v-1v1q-1 -1 -1 -3q0 1 0.5 1t0.5 1q0 -2 -0.5 -4.5t-0.5 -3.5l-4 -12v-8t-1 -8q-8 -44 -708 -45q33 -119 88 -197t125 -122h-1
q74 -41 156.5 -62t159.5 -21q166 0 347 94v-231q-83 -28 -168.5 -43.5t-160.5 -15.5q-132 11 -260 58.5t-232 123.5q-98 75 -172.5 177.5t-112.5 238.5q-20 1 -41.5 2t-44.5 3q-11 1 -26 1.5t-30 1.5t-28.5 1.5t-21.5 0.5q9 31 14.5 49t8 27.5t3 13t0.5 4.5l2 18q0 7 8 20.5
t18 23.5h105v122h-145q0 38 2.5 56t5.5 24q1 5 2 11.5t3 13.5v2q0 1 0.5 2t0.5 3v9t1 11q0 6 0.5 14.5t0.5 9.5l146 9q17 69 45.5 128.5t65.5 110.5t82 94.5t95 79.5q105 76 234 122.5t275 59.5q94 -6 192 -28.5t180 -56.5q-3 -42 -9.5 -75t-14.5 -58v1q-1 -5 -3.5 -17
t-5.5 -25.5t-5 -25t-3 -15.5q-90 45 -176.5 71t-155.5 28q-94 -6 -178.5 -34t-156 -77.5t-126.5 -120t-89 -161.5h798q-2 -8 -5.5 -21.5t-6.5 -26.5t-6 -23t-3 -11v1q-3 -10 -5 -26t-2 -59h-797v-122h720z" />
    <glyph glyph-name="figuredash" unicode="&#x2012;" horiz-adv-x="1235" 
d="M1299 492h-1304v200h1304v-200z" />
    <glyph glyph-name="uni10E0" unicode="&#x10e0;" horiz-adv-x="1600" 
d="M1510 590q0 -45 -16.5 -99t-47 -109.5t-73.5 -108t-96.5 -93t-116.5 -65t-132 -24.5v215q52 0 97.5 28.5t79.5 70.5t53.5 91.5t19.5 91.5v142q0 78 -18.5 127.5t-46.5 78t-59.5 39t-56.5 10.5q-29 0 -61 -11.5t-59 -38.5t-44.5 -71.5t-17.5 -110.5v-259h-232v259
q0 66 -17.5 110.5t-43.5 71.5t-57.5 38.5t-59.5 11.5q-34 0 -66.5 -10.5t-58.5 -39t-42 -78t-16 -127.5v-147q0 -41 17.5 -89t50.5 -90t79.5 -70t104.5 -28v-213q-80 0 -147 25t-120.5 66t-94.5 94t-68 108.5t-40.5 110t-13.5 98.5v135q0 108 18.5 216t65 206.5t125 183
t198.5 147t285.5 98t385.5 35.5v-215q-271 0 -453 -61t-280 -167l63 15q41 0 83 -7t81.5 -26t75 -51.5t64.5 -84.5q31 51 68 83.5t76 51.5t77.5 26.5t73.5 7.5q78 0 152.5 -24t132.5 -78t93 -141.5t35 -214.5v-140z" />
    <glyph glyph-name="uni10EC" unicode="&#x10ec;" horiz-adv-x="1189" 
d="M351 565q0 -51 14.5 -97.5t42.5 -82.5t68.5 -57.5t93.5 -21.5t93 21t67 55.5t40.5 79.5t13.5 93v103q0 128 -58 200q-52 66 -156 68q-55 0 -96 -11.5t-68.5 -37.5t-41 -68.5t-13.5 -105.5v-138zM120 1240q0 95 15.5 165.5t52 117.5t95.5 70t146 23q35 0 65.5 -10
t57 -27.5t49.5 -40t44 -46.5q19 25 41.5 48t49.5 39.5t60 26.5t74 10q54 0 101 -19.5t82 -53.5t55.5 -81t20.5 -101v-172h-207v172q0 9 -3.5 22.5t-11 26.5t-20 22.5t-30.5 9.5q-21 0 -40.5 -12t-34 -31.5t-23.5 -45t-9 -52.5v-71h-211v71q0 24 -5 49t-15 45.5t-26.5 33.5
t-38.5 13q-39 0 -61.5 -14t-34 -41t-14 -65.5t-2.5 -87.5v-163q56 38 115 54.5t113 16.5q102 0 185 -39.5t142.5 -105t91.5 -151t32 -178.5v-123q0 -90 -31.5 -171.5t-90 -144t-142 -99.5t-187.5 -37q-96 0 -178.5 34.5t-143 95.5t-94.5 144.5t-34 182.5v690z" />
    <glyph glyph-name="uni10E2" unicode="&#x10e2;" horiz-adv-x="1304" 
d="M982 915q0 162 -63.5 252t-175.5 115q3 -72 7 -149l8 -154t8 -152.5t7 -143.5h-246l30 597q-51 -14 -94.5 -43t-75 -74t-49 -107t-17.5 -141v-274q0 -62 23.5 -122.5t67 -107.5t104.5 -76t137 -29q72 0 132.5 27t104 73t68 106.5t24.5 128.5v274zM1214 641
q0 -79 -22.5 -150.5t-62 -132t-93 -110t-116 -84t-131 -53t-136.5 -18.5q-69 0 -138 18.5t-131.5 52.5t-116 83t-93 110t-62 132.5t-22.5 151.5v274q0 111 36.5 206.5t97.5 170.5t141.5 125.5t168.5 71.5q-18 35 -37 71.5t-29 55.5h347l-52 -125q88 -21 169.5 -71
t144 -124.5t100 -171t37.5 -209.5v-274z" />
    <glyph glyph-name="uni10EA" unicode="&#x10ea;" horiz-adv-x="1175" 
d="M1085 567q0 -103 -37.5 -190t-102.5 -150t-154.5 -98.5t-192.5 -35.5q-106 0 -198.5 39.5t-161.5 111.5t-108.5 173t-39.5 224v356q0 49 3.5 119t19.5 154.5t50 179.5t96 194l160 -144q-32 -58 -51 -126t-29.5 -136t-13.5 -130.5t-3 -110.5v-356q0 -59 19.5 -118.5
t55.5 -107.5t87 -78.5t114 -30.5q61 0 108.5 21.5t80 58t49 83.5t16.5 98v68q0 42 -7 77t-22.5 60.5t-39.5 40t-58 14.5h-157v213h157q34 0 58 13.5t39.5 32.5t22.5 39.5t7 34.5q0 15 -7.5 28t-20.5 26t-29 25t-33 24q-31 22 -64.5 50.5t-61 70t-45 98t-17.5 134.5h210
q0 -43 10 -73t27 -52.5t39 -39.5t46 -33q33 -23 65 -46.5t57.5 -53.5t41 -67.5t15.5 -86.5q0 -23 -2 -52.5t-14.5 -61t-39.5 -62.5t-76 -57q49 -30 76 -68t39.5 -77t14.5 -77.5t2 -69.5v-72z" />
    <glyph glyph-name="uni10F1" unicode="&#x10f1;" horiz-adv-x="1044" 
d="M954 474q0 -107 -33 -180t-91.5 -117.5t-137.5 -64t-170 -19.5q-99 0 -179 28t-136 83t-86.5 136t-30.5 188v1088h222v-1093q0 -45 14.5 -85t42 -69t66.5 -46t89 -17q94 0 146 40.5t52 127.5q0 72 -22.5 107.5t-76.5 37.5h-33.5t-42.5 0.5t-42 0.5h-32v205h152
q53 0 75 26t22 64q0 14 -7.5 28t-22.5 25t-38.5 18t-55.5 7h-125v214h125q54 0 89 27.5t35 81.5q0 20 -13.5 36t-43 27t-77 16.5t-115.5 5.5v215q92 0 178.5 -13.5t154 -47t108 -91t40.5 -144.5q0 -80 -26 -130t-72 -82q48 -29 73 -76.5t25 -118.5q0 -72 -22 -121t-80 -82
q55 -46 78.5 -109t23.5 -127z" />
    <glyph glyph-name="uni10F2" unicode="&#x10f2;" horiz-adv-x="1044" 
d="M322 715q0 -35 11.5 -72.5t30 -74.5t41 -70t45 -58t42.5 -40t32 -15q11 0 30.5 15t41.5 40.5t44.5 59t40.5 70t29.5 74t11.5 71.5v386q0 46 -3 98.5t-21.5 97.5t-59 74.5t-114.5 29.5q-51 0 -85.5 -16t-57 -43t-34.5 -62t-17.5 -72.5t-6.5 -75t-1 -69.5v-348zM90 260
q77 0 142 4.5t99 11.5q-51 33 -95 85t-76.5 112t-51 123t-18.5 119v386q0 147 27.5 245.5t82 158.5t136 85.5t188.5 25.5q106 0 186.5 -25.5t134.5 -85.5t81.5 -158.5t27.5 -245.5v-386q0 -57 -17.5 -121t-49.5 -124.5t-77 -111.5t-100 -82q28 -3 63.5 -6t70 -5.5t64.5 -3.5
t46 -1v-214q-91 0 -163 14t-126 34.5t-91 44t-59 43.5q-48 -28 -95 -52.5t-98 -43t-108 -29.5t-124 -11v214z" />
    <glyph glyph-name="uni10F3" unicode="&#x10f3;" horiz-adv-x="1044" 
d="M954 517q0 -87 -29 -164.5t-84.5 -135t-135.5 -91t-183 -33.5q-99 0 -179 33.5t-136 86.5t-86.5 118.5t-30.5 128.5v81q0 39 16 79t42 77t60.5 70t72.5 58l132 -154q-50 -38 -70.5 -77.5t-20.5 -68.5v-44q0 -32 12.5 -63t37 -56t62 -40.5t88.5 -15.5q56 0 94 16
t61.5 44.5t34 67t10.5 83.5v93q0 47 -11.5 91t-32.5 78t-50 54.5t-64 20.5h-232v214h226q24 0 50.5 24t49.5 66.5t40 100.5t22 126h-370v-167h-233v379h837v-209q0 -47 -13.5 -104t-37.5 -114t-56 -109t-69 -89q51 -28 84.5 -65t54 -83t29 -99.5t8.5 -114.5v-93z" />
    <glyph glyph-name="uni10F4" unicode="&#x10f4;" horiz-adv-x="1044" 
d="M954 472q0 -91 -32 -161.5t-89 -119t-136 -73.5t-173 -25t-173.5 31t-137.5 86t-90.5 129.5t-32.5 160.5q0 53 39 129.5t118 155.5l150 -143q-15 -21 -28.5 -42t-24 -40t-16.5 -35.5t-6 -28.5q0 -45 15.5 -80.5t42.5 -59.5t64 -37t80 -13q44 0 80.5 8t62.5 26.5t40.5 48
t14.5 71.5v68q0 43 -8.5 69.5t-25 41t-41.5 19t-58 4.5h-116v215h116q21 0 41.5 9t37.5 32t30 62.5t19 100.5q-61 -34 -131 -51.5t-136 -17.5q-78 0 -144 17t-114 53t-75 91t-27 132q0 20 8.5 51t31 65.5t62.5 69.5t103.5 62.5t153 45t210.5 17.5v-215q-92 0 -156.5 -9
t-104.5 -23t-58 -33t-18 -38q0 -14 5.5 -30.5t20 -30.5t38.5 -23t62 -9q39 0 99 26t129 65.5t141.5 88t136.5 93.5q0 -159 -6.5 -277.5t-21.5 -203.5t-40 -139.5t-62 -85.5q37 -21 62 -45.5t40 -54.5t21.5 -66t6.5 -79v-55z" />
    <glyph glyph-name="uni10F5" unicode="&#x10f5;" horiz-adv-x="1156" 
d="M722 608h-198q-43 0 -79.5 -6.5t-63.5 -23.5t-42.5 -47t-15.5 -77q0 -36 15.5 -64.5t42.5 -48t63.5 -29.5t79.5 -10q57 0 95 12.5t61 33.5t32.5 50t9.5 62v148zM323 1232q0 -40 15.5 -68t42.5 -46t63.5 -26t79.5 -8h198v143q0 30 -9.5 60.5t-32.5 55t-61 40t-95 15.5
q-43 0 -79.5 -9.5t-63.5 -29.5t-42.5 -51.5t-15.5 -75.5zM954 611v-151q0 -84 -28.5 -152.5t-83.5 -117t-135 -75t-183 -26.5t-183.5 26t-136 74t-85 116.5t-29.5 154.5q0 90 29.5 158t85.5 114t136.5 69t183.5 22q31 0 54 -0.5t44.5 -0.5t44.5 -0.5t54 -0.5v52h-198
q-85 0 -163.5 25t-138.5 71.5t-96 113t-36 149.5q0 84 29.5 153.5t85 120t136 78.5t183.5 28t183 -29t135 -80t83.5 -121.5t28.5 -154.5v-143h112l-2 -211h-110v-50q29 1 60.5 1.5t49.5 0.5v-207z" />
    <glyph glyph-name="uni10F6" unicode="&#x10f6;" horiz-adv-x="1452" 
d="M1131 1207q0 48 -6 84t-22.5 60.5t-44.5 37t-72 12.5q-53 0 -83 -12.5t-44.5 -36.5t-18 -59t-3.5 -80v-374q0 -61 16 -97t39 -55t48.5 -25t45.5 -6q82 0 113.5 45t31.5 138v368zM467 1616q49 0 86.5 -5t67.5 -18t55 -34t50 -54q20 29 42.5 50t52.5 34.5t70 20t95 6.5
q109 0 181 -24.5t115.5 -74t61.5 -124t18 -175.5v-379q0 -98 -31 -173t-83 -125.5t-120 -76t-142 -25.5q-52 0 -86 6t-63 21v-19q0 -98 -34 -165.5t-96.5 -109.5t-150.5 -60.5t-196 -18.5v205q51 0 96.5 9t80 27.5t55 46.5t20.5 66l3 760q0 100 -33.5 147t-114.5 47
q-52 0 -81 -12t-43.5 -35t-17.5 -57t-3 -79v-379q0 -60 17.5 -98t47.5 -59.5t69 -29t81 -7.5v-206q-98 0 -180 24t-141 73.5t-92.5 125t-33.5 177.5v374q0 103 17.5 178.5t61 125.5t116 74.5t182.5 24.5z" />
    <glyph glyph-name="uni00AD" unicode="&#xad;" horiz-adv-x="737" 
d="M18 489v228h738v-228h-738z" />
    <glyph glyph-name="dagger" unicode="&#x2020;" horiz-adv-x="1085" 
d="M640 1384v-434q42 -11 87.5 -23.5t91.5 -24.5t90.5 -23.5t83.5 -21.5v-180l-361 93v-865h-186v871q-42 -11 -89 -23t-93.5 -24t-90 -23.5t-80.5 -21.5v181l361 93v426h186z" />
    <hkern u1="&#x20;" u2="Y" k="31" />
    <hkern u1="&#x20;" u2="T" k="31" />
    <hkern u1="&#x20;" u2="A" k="94" />
    <hkern u1="&#x3f;" u2="r" k="68" />
    <hkern u1="A" u2="Y" k="257" />
    <hkern u1="A" u2="W" k="271" />
    <hkern u1="A" u2="V" k="271" />
    <hkern u1="D" u2="Y" k="129" />
    <hkern u1="F" u2="J" k="88" />
    <hkern u1="F" u2="A" k="151" />
    <hkern u1="K" u2="Q" k="122" />
    <hkern u1="K" u2="O" k="122" />
    <hkern u1="K" u2="G" k="122" />
    <hkern u1="K" u2="C" k="122" />
    <hkern u1="L" u2="Y" k="169" />
    <hkern u1="L" u2="W" k="183" />
    <hkern u1="L" u2="V" k="183" />
    <hkern u1="O" u2="X" k="122" />
    <hkern u1="P" u2="A" k="151" />
    <hkern u1="T" u2="A" k="151" />
    <hkern u1="V" u2="A" k="271" />
    <hkern u1="W" u2="A" k="271" />
    <hkern u1="X" u2="Q" k="122" />
    <hkern u1="X" u2="O" k="122" />
    <hkern u1="X" u2="G" k="122" />
    <hkern u1="X" u2="C" k="122" />
    <hkern u1="Y" u2="A" k="257" />
  </font>
</defs></svg>
